-- Merging decision tree log ---
manifest
ADDED from C:\Users\geyer\Desktop\DA Projekte\Motivity\Discover\app\src\main\AndroidManifest.xml:2:1-67:12
INJECTED from C:\Users\geyer\Desktop\DA Projekte\Motivity\Discover\app\src\main\AndroidManifest.xml:2:1-67:12
INJECTED from C:\Users\geyer\Desktop\DA Projekte\Motivity\Discover\app\src\main\AndroidManifest.xml:2:1-67:12
INJECTED from C:\Users\geyer\Desktop\DA Projekte\Motivity\Discover\app\src\main\AndroidManifest.xml:2:1-67:12
MERGED from [com.android.support:design:26.1.0] C:\Users\geyer\.gradle\caches\transforms-1\files-1.1\design-26.1.0.aar\d63f2b6444177493cc8ca32942131b60\AndroidManifest.xml:17:1-31:12
MERGED from [com.airbnb.android:lottie:2.5.0] C:\Users\geyer\.gradle\caches\transforms-1\files-1.1\lottie-2.5.0.aar\6013bd726ed8cffdf69a27d4190edba2\AndroidManifest.xml:2:1-14:12
MERGED from [com.android.support:appcompat-v7:27.0.2] C:\Users\geyer\.gradle\caches\transforms-1\files-1.1\appcompat-v7-27.0.2.aar\0b9b4b4636823e7a188ac91acd111c32\AndroidManifest.xml:17:1-22:12
MERGED from [com.android.support.constraint:constraint-layout:1.1.3] C:\Users\geyer\.gradle\caches\transforms-1\files-1.1\constraint-layout-1.1.3.aar\a9726e203de594a8c201fcae021152f3\AndroidManifest.xml:2:1-11:12
MERGED from [com.android.support:transition:26.1.0] C:\Users\geyer\.gradle\caches\transforms-1\files-1.1\transition-26.1.0.aar\a1cde4bd777111541c79e1f73ac8385d\AndroidManifest.xml:17:1-28:12
MERGED from [com.google.android.gms:play-services-fitness:15.0.1] C:\Users\geyer\.gradle\caches\transforms-1\files-1.1\play-services-fitness-15.0.1.aar\d34acd241c339ed78603297beeffcb2c\AndroidManifest.xml:17:1-24:12
MERGED from [com.google.android.gms:play-services-auth:15.0.1] C:\Users\geyer\.gradle\caches\transforms-1\files-1.1\play-services-auth-15.0.1.aar\4c6bb04ff641177497674d864f3c0d04\AndroidManifest.xml:17:1-39:12
MERGED from [com.google.firebase:firebase-auth:16.0.2] C:\Users\geyer\.gradle\caches\transforms-1\files-1.1\firebase-auth-16.0.2.aar\60f0c4d77c4d3c814bedac1d9dee0f3f\AndroidManifest.xml:17:1-38:12
MERGED from [com.google.firebase:firebase-firestore:16.0.0] C:\Users\geyer\.gradle\caches\transforms-1\files-1.1\firebase-firestore-16.0.0.aar\89f77b6b80c9ed18b20ff612c9b3a91a\AndroidManifest.xml:2:1-10:12
MERGED from [com.google.firebase:firebase-storage:15.0.0] C:\Users\geyer\.gradle\caches\transforms-1\files-1.1\firebase-storage-15.0.0.aar\75b5274ed9d7497830bd102361f41324\AndroidManifest.xml:2:1-8:12
MERGED from [com.google.android.gms:play-services-location:15.0.1] C:\Users\geyer\.gradle\caches\transforms-1\files-1.1\play-services-location-15.0.1.aar\8831845bca179e0085df7e3cb255dcb3\AndroidManifest.xml:2:1-9:12
MERGED from [com.google.android.gms:play-services-auth-api-phone:15.0.1] C:\Users\geyer\.gradle\caches\transforms-1\files-1.1\play-services-auth-api-phone-15.0.1.aar\d579e7cd98d9da75902bdb27f34562d5\AndroidManifest.xml:2:1-7:12
MERGED from [com.google.android.gms:play-services-auth-base:15.0.1] C:\Users\geyer\.gradle\caches\transforms-1\files-1.1\play-services-auth-base-15.0.1.aar\ff0bd16f9c578f0afd7912fa59f7fbc4\AndroidManifest.xml:2:1-7:12
MERGED from [com.google.android.gms:play-services-flags:15.0.1] C:\Users\geyer\.gradle\caches\transforms-1\files-1.1\play-services-flags-15.0.1.aar\1e762e54a5117da65061cfc760acc6d0\AndroidManifest.xml:17:1-22:12
MERGED from [com.google.firebase:firebase-auth-interop:16.0.0] C:\Users\geyer\.gradle\caches\transforms-1\files-1.1\firebase-auth-interop-16.0.0.aar\7ded5d1fa9f70c656bd9a24db08d8149\AndroidManifest.xml:2:1-10:12
MERGED from [com.google.firebase:firebase-core:16.0.0] C:\Users\geyer\.gradle\caches\transforms-1\files-1.1\firebase-core-16.0.0.aar\ca2dc7e3a11016a1daddf4352499751b\AndroidManifest.xml:2:1-9:12
MERGED from [com.google.firebase:firebase-measurement-connector-impl:16.0.0] C:\Users\geyer\.gradle\caches\transforms-1\files-1.1\firebase-measurement-connector-impl-16.0.0.aar\3c0f58d7d3bda94f73c7cbdbe6321cac\AndroidManifest.xml:17:1-34:12
MERGED from [com.google.firebase:firebase-analytics:16.0.0] C:\Users\geyer\.gradle\caches\transforms-1\files-1.1\firebase-analytics-16.0.0.aar\f0c9330b807bc5d4105826e7cc4c560a\AndroidManifest.xml:17:1-55:12
MERGED from [com.google.firebase:firebase-analytics-impl:16.0.0] C:\Users\geyer\.gradle\caches\transforms-1\files-1.1\firebase-analytics-impl-16.0.0.aar\3f1056391bacf16c66eb606560958f02\AndroidManifest.xml:17:1-41:12
MERGED from [com.google.firebase:firebase-iid:16.0.0] C:\Users\geyer\.gradle\caches\transforms-1\files-1.1\firebase-iid-16.0.0.aar\9c078a6938805412044a44a5bf288248\AndroidManifest.xml:17:1-65:12
MERGED from [com.google.firebase:firebase-iid-interop:16.0.0] C:\Users\geyer\.gradle\caches\transforms-1\files-1.1\firebase-iid-interop-16.0.0.aar\e6a4d8925fe12175b6864de85fe94a9d\AndroidManifest.xml:2:1-10:12
MERGED from [com.google.android.gms:play-services-base:15.0.1] C:\Users\geyer\.gradle\caches\transforms-1\files-1.1\play-services-base-15.0.1.aar\3354c9b8139797483629ef05acf0ae57\AndroidManifest.xml:17:1-29:12
MERGED from [com.google.firebase:firebase-common:16.0.0] C:\Users\geyer\.gradle\caches\transforms-1\files-1.1\firebase-common-16.0.0.aar\6c6fa18fcd6bbf4979ecad1696e72ca0\AndroidManifest.xml:2:1-16:12
MERGED from [com.google.android.gms:play-services-tasks:15.0.1] C:\Users\geyer\.gradle\caches\transforms-1\files-1.1\play-services-tasks-15.0.1.aar\9c36ed275152a4b1b8f7c47be3795645\AndroidManifest.xml:2:1-9:12
MERGED from [com.google.firebase:firebase-database-collection:15.0.1] C:\Users\geyer\.gradle\caches\transforms-1\files-1.1\firebase-database-collection-15.0.1.aar\dcc4c371b3740f5e54bd6dd832217e27\AndroidManifest.xml:2:1-8:12
MERGED from [com.google.firebase:firebase-storage-common:15.0.0] C:\Users\geyer\.gradle\caches\transforms-1\files-1.1\firebase-storage-common-15.0.0.aar\ee1fba89a8d80a8b4a5c1073c14ca10a\AndroidManifest.xml:2:1-8:12
MERGED from [com.google.android.gms:play-services-places-placereport:15.0.1] C:\Users\geyer\.gradle\caches\transforms-1\files-1.1\play-services-places-placereport-15.0.1.aar\9762b945cde74b8f1263b91fa87898db\AndroidManifest.xml:17:1-24:12
MERGED from [com.google.firebase:firebase-measurement-connector:16.0.0] C:\Users\geyer\.gradle\caches\transforms-1\files-1.1\firebase-measurement-connector-16.0.0.aar\c79f69c246086d816af3bffa3f6e91a0\AndroidManifest.xml:17:1-25:12
MERGED from [com.google.android.gms:play-services-ads-identifier:15.0.1] C:\Users\geyer\.gradle\caches\transforms-1\files-1.1\play-services-ads-identifier-15.0.1.aar\fcf72d927fa4f2173e6aff9e46eabb33\AndroidManifest.xml:17:1-24:12
MERGED from [com.google.android.gms:play-services-stats:15.0.1] C:\Users\geyer\.gradle\caches\transforms-1\files-1.1\play-services-stats-15.0.1.aar\a7dba7f2e9f23f5a960dc82babbfd97d\AndroidManifest.xml:2:1-9:12
MERGED from [com.google.android.gms:play-services-basement:15.0.1] C:\Users\geyer\.gradle\caches\transforms-1\files-1.1\play-services-basement-15.0.1.aar\67243ccb9bd56bafe83bde469c597df7\AndroidManifest.xml:17:1-28:12
MERGED from [com.android.support:support-v4:26.1.0] C:\Users\geyer\.gradle\caches\transforms-1\files-1.1\support-v4-26.1.0.aar\3131cf182967fbae47562005e2e2ea7d\AndroidManifest.xml:17:1-31:12
MERGED from [com.crashlytics.sdk.android:crashlytics:2.9.5] C:\Users\geyer\.gradle\caches\transforms-1\files-1.1\crashlytics-2.9.5.aar\480b58d1bbe1ce75a2297dd46ee77da4\AndroidManifest.xml:2:1-19:12
MERGED from [com.android.support:customtabs:26.1.0] C:\Users\geyer\.gradle\caches\transforms-1\files-1.1\customtabs-26.1.0.aar\fcb76f56f5e0967e4701efc252e87458\AndroidManifest.xml:17:1-28:12
MERGED from [pl.droidsonroids.gif:android-gif-drawable:1.2.16] C:\Users\geyer\.gradle\caches\transforms-1\files-1.1\android-gif-drawable-1.2.16.aar\f3fbab332834fcf7732d39e08d9d534b\AndroidManifest.xml:2:1-10:12
MERGED from [de.hdodenhof:circleimageview:2.2.0] C:\Users\geyer\.gradle\caches\transforms-1\files-1.1\circleimageview-2.2.0.aar\e73df2c9b155b5dd36ce6a9881906633\AndroidManifest.xml:2:1-11:12
MERGED from [com.android.support:recyclerview-v7:26.1.0] C:\Users\geyer\.gradle\caches\transforms-1\files-1.1\recyclerview-v7-26.1.0.aar\e80f7921fba7643932e5918bf10cfffc\AndroidManifest.xml:17:1-28:12
MERGED from [com.android.support:support-media-compat:26.1.0] C:\Users\geyer\.gradle\caches\transforms-1\files-1.1\support-media-compat-26.1.0.aar\3b9419689a14b52af2249ed61d7df09d\AndroidManifest.xml:17:1-31:12
MERGED from [com.android.support:support-fragment:27.0.2] C:\Users\geyer\.gradle\caches\transforms-1\files-1.1\support-fragment-27.0.2.aar\800d14121d74f67dd199d55042506b6e\AndroidManifest.xml:17:1-22:12
MERGED from [com.android.support:support-core-utils:27.0.2] C:\Users\geyer\.gradle\caches\transforms-1\files-1.1\support-core-utils-27.0.2.aar\e11bb922db359a6306133c7b78cc9513\AndroidManifest.xml:17:1-22:12
MERGED from [com.android.support:animated-vector-drawable:27.0.2] C:\Users\geyer\.gradle\caches\transforms-1\files-1.1\animated-vector-drawable-27.0.2.aar\99f9529b1081188cf572e3402c1dce28\AndroidManifest.xml:17:1-22:12
MERGED from [com.android.support:support-vector-drawable:27.0.2] C:\Users\geyer\.gradle\caches\transforms-1\files-1.1\support-vector-drawable-27.0.2.aar\29877531d34eda2783f14ca9f9243558\AndroidManifest.xml:17:1-22:12
MERGED from [com.android.support:support-core-ui:27.0.2] C:\Users\geyer\.gradle\caches\transforms-1\files-1.1\support-core-ui-27.0.2.aar\be9c10b76dcf95e723c16cc0d5a545a5\AndroidManifest.xml:17:1-22:12
MERGED from [com.android.support:support-compat:27.0.2] C:\Users\geyer\.gradle\caches\transforms-1\files-1.1\support-compat-27.0.2.aar\96b17cf8a5970f347f36d061b8394b62\AndroidManifest.xml:17:1-22:12
MERGED from [android.arch.lifecycle:runtime:1.0.3] C:\Users\geyer\.gradle\caches\transforms-1\files-1.1\runtime-1.0.3.aar\c73dd66ce099a28d56ea84e56782ec6c\AndroidManifest.xml:17:1-24:12
MERGED from [com.google.firebase:protolite-well-known-types:15.0.0] C:\Users\geyer\.gradle\caches\transforms-1\files-1.1\protolite-well-known-types-15.0.0.aar\f04312f3f38fbc2a47c2f6c7707f6526\AndroidManifest.xml:2:1-11:12
MERGED from [com.crashlytics.sdk.android:crashlytics-core:2.6.4] C:\Users\geyer\.gradle\caches\transforms-1\files-1.1\crashlytics-core-2.6.4.aar\51d08623ec9f06ea81f835c8e2c23b3a\AndroidManifest.xml:45:1-56:12
MERGED from [com.crashlytics.sdk.android:answers:1.4.3] C:\Users\geyer\.gradle\caches\transforms-1\files-1.1\answers-1.4.3.aar\fa1936f7db518d50f8b39e34149997e8\AndroidManifest.xml:2:1-13:12
MERGED from [com.crashlytics.sdk.android:beta:1.2.10] C:\Users\geyer\.gradle\caches\transforms-1\files-1.1\beta-1.2.10.aar\1c7cc45e9a5dc6a151b044be988fe33e\AndroidManifest.xml:2:1-13:12
MERGED from [io.fabric.sdk.android:fabric:1.4.4] C:\Users\geyer\.gradle\caches\transforms-1\files-1.1\fabric-1.4.4.aar\6cdc415c62c55326926fb05598683cf7\AndroidManifest.xml:22:1-33:12
MERGED from [com.google.android.gms:play-services-measurement-base:15.0.4] C:\Users\geyer\.gradle\caches\transforms-1\files-1.1\play-services-measurement-base-15.0.4.aar\a2b44dc8b5ffeadc799ee41525c8ca89\AndroidManifest.xml:17:1-24:12
INJECTED from C:\Users\geyer\Desktop\DA Projekte\Motivity\Discover\app\src\main\AndroidManifest.xml:2:1-67:12
INJECTED from C:\Users\geyer\Desktop\DA Projekte\Motivity\Discover\app\src\main\AndroidManifest.xml:2:1-67:12
INJECTED from C:\Users\geyer\Desktop\DA Projekte\Motivity\Discover\app\src\main\AndroidManifest.xml:2:1-67:12
	package
		ADDED from C:\Users\geyer\Desktop\DA Projekte\Motivity\Discover\app\src\main\AndroidManifest.xml:3:5-38
		INJECTED from C:\Users\geyer\Desktop\DA Projekte\Motivity\Discover\app\src\main\AndroidManifest.xml
		INJECTED from C:\Users\geyer\Desktop\DA Projekte\Motivity\Discover\app\src\main\AndroidManifest.xml
	android:versionName
		INJECTED from C:\Users\geyer\Desktop\DA Projekte\Motivity\Discover\app\src\main\AndroidManifest.xml
		ADDED from C:\Users\geyer\Desktop\DA Projekte\Motivity\Discover\app\src\main\AndroidManifest.xml:2:1-67:12
		INJECTED from C:\Users\geyer\Desktop\DA Projekte\Motivity\Discover\app\src\main\AndroidManifest.xml
	android:versionCode
		INJECTED from C:\Users\geyer\Desktop\DA Projekte\Motivity\Discover\app\src\main\AndroidManifest.xml
		ADDED from C:\Users\geyer\Desktop\DA Projekte\Motivity\Discover\app\src\main\AndroidManifest.xml:2:1-67:12
		INJECTED from C:\Users\geyer\Desktop\DA Projekte\Motivity\Discover\app\src\main\AndroidManifest.xml
	xmlns:android
		ADDED from C:\Users\geyer\Desktop\DA Projekte\Motivity\Discover\app\src\main\AndroidManifest.xml:2:11-69
uses-permission#android.permission.GET_ACCOUNTS
ADDED from C:\Users\geyer\Desktop\DA Projekte\Motivity\Discover\app\src\main\AndroidManifest.xml:6:5-71
	android:name
		ADDED from C:\Users\geyer\Desktop\DA Projekte\Motivity\Discover\app\src\main\AndroidManifest.xml:6:22-68
uses-permission#android.permission.READ_PROFILE
ADDED from C:\Users\geyer\Desktop\DA Projekte\Motivity\Discover\app\src\main\AndroidManifest.xml:7:5-71
	android:name
		ADDED from C:\Users\geyer\Desktop\DA Projekte\Motivity\Discover\app\src\main\AndroidManifest.xml:7:22-68
uses-permission#android.permission.INTERNET
ADDED from C:\Users\geyer\Desktop\DA Projekte\Motivity\Discover\app\src\main\AndroidManifest.xml:8:5-67
MERGED from [com.google.firebase:firebase-measurement-connector-impl:16.0.0] C:\Users\geyer\.gradle\caches\transforms-1\files-1.1\firebase-measurement-connector-impl-16.0.0.aar\3c0f58d7d3bda94f73c7cbdbe6321cac\AndroidManifest.xml:22:5-67
MERGED from [com.google.firebase:firebase-measurement-connector-impl:16.0.0] C:\Users\geyer\.gradle\caches\transforms-1\files-1.1\firebase-measurement-connector-impl-16.0.0.aar\3c0f58d7d3bda94f73c7cbdbe6321cac\AndroidManifest.xml:22:5-67
MERGED from [com.google.firebase:firebase-analytics:16.0.0] C:\Users\geyer\.gradle\caches\transforms-1\files-1.1\firebase-analytics-16.0.0.aar\f0c9330b807bc5d4105826e7cc4c560a\AndroidManifest.xml:23:5-67
MERGED from [com.google.firebase:firebase-analytics:16.0.0] C:\Users\geyer\.gradle\caches\transforms-1\files-1.1\firebase-analytics-16.0.0.aar\f0c9330b807bc5d4105826e7cc4c560a\AndroidManifest.xml:23:5-67
MERGED from [com.google.firebase:firebase-analytics-impl:16.0.0] C:\Users\geyer\.gradle\caches\transforms-1\files-1.1\firebase-analytics-impl-16.0.0.aar\3f1056391bacf16c66eb606560958f02\AndroidManifest.xml:23:5-67
MERGED from [com.google.firebase:firebase-analytics-impl:16.0.0] C:\Users\geyer\.gradle\caches\transforms-1\files-1.1\firebase-analytics-impl-16.0.0.aar\3f1056391bacf16c66eb606560958f02\AndroidManifest.xml:23:5-67
MERGED from [com.google.firebase:firebase-iid:16.0.0] C:\Users\geyer\.gradle\caches\transforms-1\files-1.1\firebase-iid-16.0.0.aar\9c078a6938805412044a44a5bf288248\AndroidManifest.xml:23:5-67
MERGED from [com.google.firebase:firebase-iid:16.0.0] C:\Users\geyer\.gradle\caches\transforms-1\files-1.1\firebase-iid-16.0.0.aar\9c078a6938805412044a44a5bf288248\AndroidManifest.xml:23:5-67
MERGED from [com.crashlytics.sdk.android:crashlytics:2.9.5] C:\Users\geyer\.gradle\caches\transforms-1\files-1.1\crashlytics-2.9.5.aar\480b58d1bbe1ce75a2297dd46ee77da4\AndroidManifest.xml:9:5-67
MERGED from [com.crashlytics.sdk.android:crashlytics:2.9.5] C:\Users\geyer\.gradle\caches\transforms-1\files-1.1\crashlytics-2.9.5.aar\480b58d1bbe1ce75a2297dd46ee77da4\AndroidManifest.xml:9:5-67
MERGED from [com.crashlytics.sdk.android:crashlytics-core:2.6.4] C:\Users\geyer\.gradle\caches\transforms-1\files-1.1\crashlytics-core-2.6.4.aar\51d08623ec9f06ea81f835c8e2c23b3a\AndroidManifest.xml:52:5-67
MERGED from [com.crashlytics.sdk.android:crashlytics-core:2.6.4] C:\Users\geyer\.gradle\caches\transforms-1\files-1.1\crashlytics-core-2.6.4.aar\51d08623ec9f06ea81f835c8e2c23b3a\AndroidManifest.xml:52:5-67
MERGED from [com.crashlytics.sdk.android:answers:1.4.3] C:\Users\geyer\.gradle\caches\transforms-1\files-1.1\answers-1.4.3.aar\fa1936f7db518d50f8b39e34149997e8\AndroidManifest.xml:9:5-67
MERGED from [com.crashlytics.sdk.android:answers:1.4.3] C:\Users\geyer\.gradle\caches\transforms-1\files-1.1\answers-1.4.3.aar\fa1936f7db518d50f8b39e34149997e8\AndroidManifest.xml:9:5-67
MERGED from [com.crashlytics.sdk.android:beta:1.2.10] C:\Users\geyer\.gradle\caches\transforms-1\files-1.1\beta-1.2.10.aar\1c7cc45e9a5dc6a151b044be988fe33e\AndroidManifest.xml:9:5-67
MERGED from [com.crashlytics.sdk.android:beta:1.2.10] C:\Users\geyer\.gradle\caches\transforms-1\files-1.1\beta-1.2.10.aar\1c7cc45e9a5dc6a151b044be988fe33e\AndroidManifest.xml:9:5-67
MERGED from [io.fabric.sdk.android:fabric:1.4.4] C:\Users\geyer\.gradle\caches\transforms-1\files-1.1\fabric-1.4.4.aar\6cdc415c62c55326926fb05598683cf7\AndroidManifest.xml:29:5-67
MERGED from [io.fabric.sdk.android:fabric:1.4.4] C:\Users\geyer\.gradle\caches\transforms-1\files-1.1\fabric-1.4.4.aar\6cdc415c62c55326926fb05598683cf7\AndroidManifest.xml:29:5-67
	android:name
		ADDED from C:\Users\geyer\Desktop\DA Projekte\Motivity\Discover\app\src\main\AndroidManifest.xml:8:22-64
uses-permission#android.permission.ACCESS_NETWORK_STATE
ADDED from C:\Users\geyer\Desktop\DA Projekte\Motivity\Discover\app\src\main\AndroidManifest.xml:9:5-79
MERGED from [com.google.firebase:firebase-measurement-connector-impl:16.0.0] C:\Users\geyer\.gradle\caches\transforms-1\files-1.1\firebase-measurement-connector-impl-16.0.0.aar\3c0f58d7d3bda94f73c7cbdbe6321cac\AndroidManifest.xml:23:5-79
MERGED from [com.google.firebase:firebase-measurement-connector-impl:16.0.0] C:\Users\geyer\.gradle\caches\transforms-1\files-1.1\firebase-measurement-connector-impl-16.0.0.aar\3c0f58d7d3bda94f73c7cbdbe6321cac\AndroidManifest.xml:23:5-79
MERGED from [com.google.firebase:firebase-analytics:16.0.0] C:\Users\geyer\.gradle\caches\transforms-1\files-1.1\firebase-analytics-16.0.0.aar\f0c9330b807bc5d4105826e7cc4c560a\AndroidManifest.xml:24:5-79
MERGED from [com.google.firebase:firebase-analytics:16.0.0] C:\Users\geyer\.gradle\caches\transforms-1\files-1.1\firebase-analytics-16.0.0.aar\f0c9330b807bc5d4105826e7cc4c560a\AndroidManifest.xml:24:5-79
MERGED from [com.google.firebase:firebase-analytics-impl:16.0.0] C:\Users\geyer\.gradle\caches\transforms-1\files-1.1\firebase-analytics-impl-16.0.0.aar\3f1056391bacf16c66eb606560958f02\AndroidManifest.xml:24:5-79
MERGED from [com.google.firebase:firebase-analytics-impl:16.0.0] C:\Users\geyer\.gradle\caches\transforms-1\files-1.1\firebase-analytics-impl-16.0.0.aar\3f1056391bacf16c66eb606560958f02\AndroidManifest.xml:24:5-79
MERGED from [com.google.firebase:firebase-iid:16.0.0] C:\Users\geyer\.gradle\caches\transforms-1\files-1.1\firebase-iid-16.0.0.aar\9c078a6938805412044a44a5bf288248\AndroidManifest.xml:22:5-79
MERGED from [com.google.firebase:firebase-iid:16.0.0] C:\Users\geyer\.gradle\caches\transforms-1\files-1.1\firebase-iid-16.0.0.aar\9c078a6938805412044a44a5bf288248\AndroidManifest.xml:22:5-79
	android:name
		ADDED from C:\Users\geyer\Desktop\DA Projekte\Motivity\Discover\app\src\main\AndroidManifest.xml:9:22-76
uses-permission#android.permission.ACCESS_FINE_LOCATION
ADDED from C:\Users\geyer\Desktop\DA Projekte\Motivity\Discover\app\src\main\AndroidManifest.xml:10:5-78
	android:name
		ADDED from C:\Users\geyer\Desktop\DA Projekte\Motivity\Discover\app\src\main\AndroidManifest.xml:10:22-76
uses-permission#android.permission.INSTALL_SHORTCUT
ADDED from C:\Users\geyer\Desktop\DA Projekte\Motivity\Discover\app\src\main\AndroidManifest.xml:11:5-74
	android:name
		ADDED from C:\Users\geyer\Desktop\DA Projekte\Motivity\Discover\app\src\main\AndroidManifest.xml:11:22-72
uses-permission#android.permission.READ_EXTERNAL_STORAGE
ADDED from C:\Users\geyer\Desktop\DA Projekte\Motivity\Discover\app\src\main\AndroidManifest.xml:12:5-79
	android:name
		ADDED from C:\Users\geyer\Desktop\DA Projekte\Motivity\Discover\app\src\main\AndroidManifest.xml:12:22-77
uses-permission#android.permission.WRITE_EXTERNAL_STORAGE
ADDED from C:\Users\geyer\Desktop\DA Projekte\Motivity\Discover\app\src\main\AndroidManifest.xml:13:5-80
	android:name
		ADDED from C:\Users\geyer\Desktop\DA Projekte\Motivity\Discover\app\src\main\AndroidManifest.xml:13:22-78
application
ADDED from C:\Users\geyer\Desktop\DA Projekte\Motivity\Discover\app\src\main\AndroidManifest.xml:15:5-65:19
MERGED from [com.android.support:design:26.1.0] C:\Users\geyer\.gradle\caches\transforms-1\files-1.1\design-26.1.0.aar\d63f2b6444177493cc8ca32942131b60\AndroidManifest.xml:25:5-29:19
MERGED from [com.android.support:design:26.1.0] C:\Users\geyer\.gradle\caches\transforms-1\files-1.1\design-26.1.0.aar\d63f2b6444177493cc8ca32942131b60\AndroidManifest.xml:25:5-29:19
MERGED from [com.airbnb.android:lottie:2.5.0] C:\Users\geyer\.gradle\caches\transforms-1\files-1.1\lottie-2.5.0.aar\6013bd726ed8cffdf69a27d4190edba2\AndroidManifest.xml:12:5-20
MERGED from [com.airbnb.android:lottie:2.5.0] C:\Users\geyer\.gradle\caches\transforms-1\files-1.1\lottie-2.5.0.aar\6013bd726ed8cffdf69a27d4190edba2\AndroidManifest.xml:12:5-20
MERGED from [com.android.support.constraint:constraint-layout:1.1.3] C:\Users\geyer\.gradle\caches\transforms-1\files-1.1\constraint-layout-1.1.3.aar\a9726e203de594a8c201fcae021152f3\AndroidManifest.xml:9:5-20
MERGED from [com.android.support.constraint:constraint-layout:1.1.3] C:\Users\geyer\.gradle\caches\transforms-1\files-1.1\constraint-layout-1.1.3.aar\a9726e203de594a8c201fcae021152f3\AndroidManifest.xml:9:5-20
MERGED from [com.android.support:transition:26.1.0] C:\Users\geyer\.gradle\caches\transforms-1\files-1.1\transition-26.1.0.aar\a1cde4bd777111541c79e1f73ac8385d\AndroidManifest.xml:22:5-26:19
MERGED from [com.android.support:transition:26.1.0] C:\Users\geyer\.gradle\caches\transforms-1\files-1.1\transition-26.1.0.aar\a1cde4bd777111541c79e1f73ac8385d\AndroidManifest.xml:22:5-26:19
MERGED from [com.google.android.gms:play-services-fitness:15.0.1] C:\Users\geyer\.gradle\caches\transforms-1\files-1.1\play-services-fitness-15.0.1.aar\d34acd241c339ed78603297beeffcb2c\AndroidManifest.xml:22:5-20
MERGED from [com.google.android.gms:play-services-fitness:15.0.1] C:\Users\geyer\.gradle\caches\transforms-1\files-1.1\play-services-fitness-15.0.1.aar\d34acd241c339ed78603297beeffcb2c\AndroidManifest.xml:22:5-20
MERGED from [com.google.android.gms:play-services-auth:15.0.1] C:\Users\geyer\.gradle\caches\transforms-1\files-1.1\play-services-auth-15.0.1.aar\4c6bb04ff641177497674d864f3c0d04\AndroidManifest.xml:22:5-37:19
MERGED from [com.google.android.gms:play-services-auth:15.0.1] C:\Users\geyer\.gradle\caches\transforms-1\files-1.1\play-services-auth-15.0.1.aar\4c6bb04ff641177497674d864f3c0d04\AndroidManifest.xml:22:5-37:19
MERGED from [com.google.firebase:firebase-auth:16.0.2] C:\Users\geyer\.gradle\caches\transforms-1\files-1.1\firebase-auth-16.0.2.aar\60f0c4d77c4d3c814bedac1d9dee0f3f\AndroidManifest.xml:22:5-36:19
MERGED from [com.google.firebase:firebase-auth:16.0.2] C:\Users\geyer\.gradle\caches\transforms-1\files-1.1\firebase-auth-16.0.2.aar\60f0c4d77c4d3c814bedac1d9dee0f3f\AndroidManifest.xml:22:5-36:19
MERGED from [com.google.android.gms:play-services-location:15.0.1] C:\Users\geyer\.gradle\caches\transforms-1\files-1.1\play-services-location-15.0.1.aar\8831845bca179e0085df7e3cb255dcb3\AndroidManifest.xml:7:5-20
MERGED from [com.google.android.gms:play-services-location:15.0.1] C:\Users\geyer\.gradle\caches\transforms-1\files-1.1\play-services-location-15.0.1.aar\8831845bca179e0085df7e3cb255dcb3\AndroidManifest.xml:7:5-20
MERGED from [com.google.firebase:firebase-auth-interop:16.0.0] C:\Users\geyer\.gradle\caches\transforms-1\files-1.1\firebase-auth-interop-16.0.0.aar\7ded5d1fa9f70c656bd9a24db08d8149\AndroidManifest.xml:7:5-8:19
MERGED from [com.google.firebase:firebase-auth-interop:16.0.0] C:\Users\geyer\.gradle\caches\transforms-1\files-1.1\firebase-auth-interop-16.0.0.aar\7ded5d1fa9f70c656bd9a24db08d8149\AndroidManifest.xml:7:5-8:19
MERGED from [com.google.firebase:firebase-core:16.0.0] C:\Users\geyer\.gradle\caches\transforms-1\files-1.1\firebase-core-16.0.0.aar\ca2dc7e3a11016a1daddf4352499751b\AndroidManifest.xml:7:5-20
MERGED from [com.google.firebase:firebase-core:16.0.0] C:\Users\geyer\.gradle\caches\transforms-1\files-1.1\firebase-core-16.0.0.aar\ca2dc7e3a11016a1daddf4352499751b\AndroidManifest.xml:7:5-20
MERGED from [com.google.firebase:firebase-measurement-connector-impl:16.0.0] C:\Users\geyer\.gradle\caches\transforms-1\files-1.1\firebase-measurement-connector-impl-16.0.0.aar\3c0f58d7d3bda94f73c7cbdbe6321cac\AndroidManifest.xml:26:5-32:19
MERGED from [com.google.firebase:firebase-measurement-connector-impl:16.0.0] C:\Users\geyer\.gradle\caches\transforms-1\files-1.1\firebase-measurement-connector-impl-16.0.0.aar\3c0f58d7d3bda94f73c7cbdbe6321cac\AndroidManifest.xml:26:5-32:19
MERGED from [com.google.firebase:firebase-analytics:16.0.0] C:\Users\geyer\.gradle\caches\transforms-1\files-1.1\firebase-analytics-16.0.0.aar\f0c9330b807bc5d4105826e7cc4c560a\AndroidManifest.xml:28:5-53:19
MERGED from [com.google.firebase:firebase-analytics:16.0.0] C:\Users\geyer\.gradle\caches\transforms-1\files-1.1\firebase-analytics-16.0.0.aar\f0c9330b807bc5d4105826e7cc4c560a\AndroidManifest.xml:28:5-53:19
MERGED from [com.google.firebase:firebase-analytics-impl:16.0.0] C:\Users\geyer\.gradle\caches\transforms-1\files-1.1\firebase-analytics-impl-16.0.0.aar\3f1056391bacf16c66eb606560958f02\AndroidManifest.xml:28:5-39:19
MERGED from [com.google.firebase:firebase-analytics-impl:16.0.0] C:\Users\geyer\.gradle\caches\transforms-1\files-1.1\firebase-analytics-impl-16.0.0.aar\3f1056391bacf16c66eb606560958f02\AndroidManifest.xml:28:5-39:19
MERGED from [com.google.firebase:firebase-iid:16.0.0] C:\Users\geyer\.gradle\caches\transforms-1\files-1.1\firebase-iid-16.0.0.aar\9c078a6938805412044a44a5bf288248\AndroidManifest.xml:34:5-63:19
MERGED from [com.google.firebase:firebase-iid:16.0.0] C:\Users\geyer\.gradle\caches\transforms-1\files-1.1\firebase-iid-16.0.0.aar\9c078a6938805412044a44a5bf288248\AndroidManifest.xml:34:5-63:19
MERGED from [com.google.firebase:firebase-iid-interop:16.0.0] C:\Users\geyer\.gradle\caches\transforms-1\files-1.1\firebase-iid-interop-16.0.0.aar\e6a4d8925fe12175b6864de85fe94a9d\AndroidManifest.xml:7:5-8:19
MERGED from [com.google.firebase:firebase-iid-interop:16.0.0] C:\Users\geyer\.gradle\caches\transforms-1\files-1.1\firebase-iid-interop-16.0.0.aar\e6a4d8925fe12175b6864de85fe94a9d\AndroidManifest.xml:7:5-8:19
MERGED from [com.google.android.gms:play-services-base:15.0.1] C:\Users\geyer\.gradle\caches\transforms-1\files-1.1\play-services-base-15.0.1.aar\3354c9b8139797483629ef05acf0ae57\AndroidManifest.xml:22:5-27:19
MERGED from [com.google.android.gms:play-services-base:15.0.1] C:\Users\geyer\.gradle\caches\transforms-1\files-1.1\play-services-base-15.0.1.aar\3354c9b8139797483629ef05acf0ae57\AndroidManifest.xml:22:5-27:19
MERGED from [com.google.firebase:firebase-common:16.0.0] C:\Users\geyer\.gradle\caches\transforms-1\files-1.1\firebase-common-16.0.0.aar\6c6fa18fcd6bbf4979ecad1696e72ca0\AndroidManifest.xml:8:5-14:19
MERGED from [com.google.firebase:firebase-common:16.0.0] C:\Users\geyer\.gradle\caches\transforms-1\files-1.1\firebase-common-16.0.0.aar\6c6fa18fcd6bbf4979ecad1696e72ca0\AndroidManifest.xml:8:5-14:19
MERGED from [com.google.android.gms:play-services-tasks:15.0.1] C:\Users\geyer\.gradle\caches\transforms-1\files-1.1\play-services-tasks-15.0.1.aar\9c36ed275152a4b1b8f7c47be3795645\AndroidManifest.xml:7:5-20
MERGED from [com.google.android.gms:play-services-tasks:15.0.1] C:\Users\geyer\.gradle\caches\transforms-1\files-1.1\play-services-tasks-15.0.1.aar\9c36ed275152a4b1b8f7c47be3795645\AndroidManifest.xml:7:5-20
MERGED from [com.google.android.gms:play-services-places-placereport:15.0.1] C:\Users\geyer\.gradle\caches\transforms-1\files-1.1\play-services-places-placereport-15.0.1.aar\9762b945cde74b8f1263b91fa87898db\AndroidManifest.xml:22:5-20
MERGED from [com.google.android.gms:play-services-places-placereport:15.0.1] C:\Users\geyer\.gradle\caches\transforms-1\files-1.1\play-services-places-placereport-15.0.1.aar\9762b945cde74b8f1263b91fa87898db\AndroidManifest.xml:22:5-20
MERGED from [com.google.firebase:firebase-measurement-connector:16.0.0] C:\Users\geyer\.gradle\caches\transforms-1\files-1.1\firebase-measurement-connector-16.0.0.aar\c79f69c246086d816af3bffa3f6e91a0\AndroidManifest.xml:22:5-23:19
MERGED from [com.google.firebase:firebase-measurement-connector:16.0.0] C:\Users\geyer\.gradle\caches\transforms-1\files-1.1\firebase-measurement-connector-16.0.0.aar\c79f69c246086d816af3bffa3f6e91a0\AndroidManifest.xml:22:5-23:19
MERGED from [com.google.android.gms:play-services-ads-identifier:15.0.1] C:\Users\geyer\.gradle\caches\transforms-1\files-1.1\play-services-ads-identifier-15.0.1.aar\fcf72d927fa4f2173e6aff9e46eabb33\AndroidManifest.xml:22:5-20
MERGED from [com.google.android.gms:play-services-ads-identifier:15.0.1] C:\Users\geyer\.gradle\caches\transforms-1\files-1.1\play-services-ads-identifier-15.0.1.aar\fcf72d927fa4f2173e6aff9e46eabb33\AndroidManifest.xml:22:5-20
MERGED from [com.google.android.gms:play-services-stats:15.0.1] C:\Users\geyer\.gradle\caches\transforms-1\files-1.1\play-services-stats-15.0.1.aar\a7dba7f2e9f23f5a960dc82babbfd97d\AndroidManifest.xml:7:5-20
MERGED from [com.google.android.gms:play-services-stats:15.0.1] C:\Users\geyer\.gradle\caches\transforms-1\files-1.1\play-services-stats-15.0.1.aar\a7dba7f2e9f23f5a960dc82babbfd97d\AndroidManifest.xml:7:5-20
MERGED from [com.google.android.gms:play-services-basement:15.0.1] C:\Users\geyer\.gradle\caches\transforms-1\files-1.1\play-services-basement-15.0.1.aar\67243ccb9bd56bafe83bde469c597df7\AndroidManifest.xml:22:5-26:19
MERGED from [com.google.android.gms:play-services-basement:15.0.1] C:\Users\geyer\.gradle\caches\transforms-1\files-1.1\play-services-basement-15.0.1.aar\67243ccb9bd56bafe83bde469c597df7\AndroidManifest.xml:22:5-26:19
MERGED from [com.android.support:support-v4:26.1.0] C:\Users\geyer\.gradle\caches\transforms-1\files-1.1\support-v4-26.1.0.aar\3131cf182967fbae47562005e2e2ea7d\AndroidManifest.xml:25:5-29:19
MERGED from [com.android.support:support-v4:26.1.0] C:\Users\geyer\.gradle\caches\transforms-1\files-1.1\support-v4-26.1.0.aar\3131cf182967fbae47562005e2e2ea7d\AndroidManifest.xml:25:5-29:19
MERGED from [com.crashlytics.sdk.android:crashlytics:2.9.5] C:\Users\geyer\.gradle\caches\transforms-1\files-1.1\crashlytics-2.9.5.aar\480b58d1bbe1ce75a2297dd46ee77da4\AndroidManifest.xml:11:5-17:19
MERGED from [com.crashlytics.sdk.android:crashlytics:2.9.5] C:\Users\geyer\.gradle\caches\transforms-1\files-1.1\crashlytics-2.9.5.aar\480b58d1bbe1ce75a2297dd46ee77da4\AndroidManifest.xml:11:5-17:19
MERGED from [com.android.support:customtabs:26.1.0] C:\Users\geyer\.gradle\caches\transforms-1\files-1.1\customtabs-26.1.0.aar\fcb76f56f5e0967e4701efc252e87458\AndroidManifest.xml:22:5-26:19
MERGED from [com.android.support:customtabs:26.1.0] C:\Users\geyer\.gradle\caches\transforms-1\files-1.1\customtabs-26.1.0.aar\fcb76f56f5e0967e4701efc252e87458\AndroidManifest.xml:22:5-26:19
MERGED from [de.hdodenhof:circleimageview:2.2.0] C:\Users\geyer\.gradle\caches\transforms-1\files-1.1\circleimageview-2.2.0.aar\e73df2c9b155b5dd36ce6a9881906633\AndroidManifest.xml:9:5-20
MERGED from [de.hdodenhof:circleimageview:2.2.0] C:\Users\geyer\.gradle\caches\transforms-1\files-1.1\circleimageview-2.2.0.aar\e73df2c9b155b5dd36ce6a9881906633\AndroidManifest.xml:9:5-20
MERGED from [com.android.support:recyclerview-v7:26.1.0] C:\Users\geyer\.gradle\caches\transforms-1\files-1.1\recyclerview-v7-26.1.0.aar\e80f7921fba7643932e5918bf10cfffc\AndroidManifest.xml:22:5-26:19
MERGED from [com.android.support:recyclerview-v7:26.1.0] C:\Users\geyer\.gradle\caches\transforms-1\files-1.1\recyclerview-v7-26.1.0.aar\e80f7921fba7643932e5918bf10cfffc\AndroidManifest.xml:22:5-26:19
MERGED from [com.android.support:support-media-compat:26.1.0] C:\Users\geyer\.gradle\caches\transforms-1\files-1.1\support-media-compat-26.1.0.aar\3b9419689a14b52af2249ed61d7df09d\AndroidManifest.xml:25:5-29:19
MERGED from [com.android.support:support-media-compat:26.1.0] C:\Users\geyer\.gradle\caches\transforms-1\files-1.1\support-media-compat-26.1.0.aar\3b9419689a14b52af2249ed61d7df09d\AndroidManifest.xml:25:5-29:19
MERGED from [com.crashlytics.sdk.android:crashlytics-core:2.6.4] C:\Users\geyer\.gradle\caches\transforms-1\files-1.1\crashlytics-core-2.6.4.aar\51d08623ec9f06ea81f835c8e2c23b3a\AndroidManifest.xml:54:5-20
MERGED from [com.crashlytics.sdk.android:crashlytics-core:2.6.4] C:\Users\geyer\.gradle\caches\transforms-1\files-1.1\crashlytics-core-2.6.4.aar\51d08623ec9f06ea81f835c8e2c23b3a\AndroidManifest.xml:54:5-20
MERGED from [com.crashlytics.sdk.android:answers:1.4.3] C:\Users\geyer\.gradle\caches\transforms-1\files-1.1\answers-1.4.3.aar\fa1936f7db518d50f8b39e34149997e8\AndroidManifest.xml:11:5-20
MERGED from [com.crashlytics.sdk.android:answers:1.4.3] C:\Users\geyer\.gradle\caches\transforms-1\files-1.1\answers-1.4.3.aar\fa1936f7db518d50f8b39e34149997e8\AndroidManifest.xml:11:5-20
MERGED from [com.crashlytics.sdk.android:beta:1.2.10] C:\Users\geyer\.gradle\caches\transforms-1\files-1.1\beta-1.2.10.aar\1c7cc45e9a5dc6a151b044be988fe33e\AndroidManifest.xml:11:5-20
MERGED from [com.crashlytics.sdk.android:beta:1.2.10] C:\Users\geyer\.gradle\caches\transforms-1\files-1.1\beta-1.2.10.aar\1c7cc45e9a5dc6a151b044be988fe33e\AndroidManifest.xml:11:5-20
MERGED from [io.fabric.sdk.android:fabric:1.4.4] C:\Users\geyer\.gradle\caches\transforms-1\files-1.1\fabric-1.4.4.aar\6cdc415c62c55326926fb05598683cf7\AndroidManifest.xml:31:5-20
MERGED from [io.fabric.sdk.android:fabric:1.4.4] C:\Users\geyer\.gradle\caches\transforms-1\files-1.1\fabric-1.4.4.aar\6cdc415c62c55326926fb05598683cf7\AndroidManifest.xml:31:5-20
MERGED from [com.google.android.gms:play-services-measurement-base:15.0.4] C:\Users\geyer\.gradle\caches\transforms-1\files-1.1\play-services-measurement-base-15.0.4.aar\a2b44dc8b5ffeadc799ee41525c8ca89\AndroidManifest.xml:22:5-20
MERGED from [com.google.android.gms:play-services-measurement-base:15.0.4] C:\Users\geyer\.gradle\caches\transforms-1\files-1.1\play-services-measurement-base-15.0.4.aar\a2b44dc8b5ffeadc799ee41525c8ca89\AndroidManifest.xml:22:5-20
	android:supportsRtl
		ADDED from C:\Users\geyer\Desktop\DA Projekte\Motivity\Discover\app\src\main\AndroidManifest.xml:20:9-35
	android:label
		ADDED from C:\Users\geyer\Desktop\DA Projekte\Motivity\Discover\app\src\main\AndroidManifest.xml:18:9-41
	android:roundIcon
		ADDED from C:\Users\geyer\Desktop\DA Projekte\Motivity\Discover\app\src\main\AndroidManifest.xml:19:9-54
	android:icon
		ADDED from C:\Users\geyer\Desktop\DA Projekte\Motivity\Discover\app\src\main\AndroidManifest.xml:17:9-43
	android:allowBackup
		ADDED from C:\Users\geyer\Desktop\DA Projekte\Motivity\Discover\app\src\main\AndroidManifest.xml:16:9-35
	android:theme
		ADDED from C:\Users\geyer\Desktop\DA Projekte\Motivity\Discover\app\src\main\AndroidManifest.xml:21:9-54
meta-data#com.google.firebase.auth.v2.API_KEY
ADDED from C:\Users\geyer\Desktop\DA Projekte\Motivity\Discover\app\src\main\AndroidManifest.xml:22:9-24:71
	android:value
		ADDED from C:\Users\geyer\Desktop\DA Projekte\Motivity\Discover\app\src\main\AndroidManifest.xml:24:13-68
	android:name
		ADDED from C:\Users\geyer\Desktop\DA Projekte\Motivity\Discover\app\src\main\AndroidManifest.xml:23:13-63
meta-data#preloaded_fonts
ADDED from C:\Users\geyer\Desktop\DA Projekte\Motivity\Discover\app\src\main\AndroidManifest.xml:25:9-27:57
	android:resource
		ADDED from C:\Users\geyer\Desktop\DA Projekte\Motivity\Discover\app\src\main\AndroidManifest.xml:27:13-54
	android:name
		ADDED from C:\Users\geyer\Desktop\DA Projekte\Motivity\Discover\app\src\main\AndroidManifest.xml:26:13-43
activity#at.markusgeyer.discover.Dashboard
ADDED from C:\Users\geyer\Desktop\DA Projekte\Motivity\Discover\app\src\main\AndroidManifest.xml:29:9-42:20
	android:screenOrientation
		ADDED from C:\Users\geyer\Desktop\DA Projekte\Motivity\Discover\app\src\main\AndroidManifest.xml:33:13-49
	android:label
		ADDED from C:\Users\geyer\Desktop\DA Projekte\Motivity\Discover\app\src\main\AndroidManifest.xml:31:13-45
	android:resizeableActivity
		ADDED from C:\Users\geyer\Desktop\DA Projekte\Motivity\Discover\app\src\main\AndroidManifest.xml:32:13-47
	android:name
		ADDED from C:\Users\geyer\Desktop\DA Projekte\Motivity\Discover\app\src\main\AndroidManifest.xml:30:13-38
intent-filter#action:name:android.intent.action.MAIN+category:name:android.intent.category.LAUNCHER
ADDED from C:\Users\geyer\Desktop\DA Projekte\Motivity\Discover\app\src\main\AndroidManifest.xml:34:13-38:29
action#android.intent.action.MAIN
ADDED from C:\Users\geyer\Desktop\DA Projekte\Motivity\Discover\app\src\main\AndroidManifest.xml:35:17-69
	android:name
		ADDED from C:\Users\geyer\Desktop\DA Projekte\Motivity\Discover\app\src\main\AndroidManifest.xml:35:25-66
category#android.intent.category.LAUNCHER
ADDED from C:\Users\geyer\Desktop\DA Projekte\Motivity\Discover\app\src\main\AndroidManifest.xml:37:17-77
	android:name
		ADDED from C:\Users\geyer\Desktop\DA Projekte\Motivity\Discover\app\src\main\AndroidManifest.xml:37:27-74
meta-data#android.app.shortcuts
ADDED from C:\Users\geyer\Desktop\DA Projekte\Motivity\Discover\app\src\main\AndroidManifest.xml:39:13-41:53
	android:resource
		ADDED from C:\Users\geyer\Desktop\DA Projekte\Motivity\Discover\app\src\main\AndroidManifest.xml:41:17-50
	android:name
		ADDED from C:\Users\geyer\Desktop\DA Projekte\Motivity\Discover\app\src\main\AndroidManifest.xml:40:17-53
activity#at.markusgeyer.discover.ChangeGoal
ADDED from C:\Users\geyer\Desktop\DA Projekte\Motivity\Discover\app\src\main\AndroidManifest.xml:43:9-45:52
	android:screenOrientation
		ADDED from C:\Users\geyer\Desktop\DA Projekte\Motivity\Discover\app\src\main\AndroidManifest.xml:45:13-49
	android:name
		ADDED from C:\Users\geyer\Desktop\DA Projekte\Motivity\Discover\app\src\main\AndroidManifest.xml:44:13-39
activity#at.markusgeyer.discover.Add
ADDED from C:\Users\geyer\Desktop\DA Projekte\Motivity\Discover\app\src\main\AndroidManifest.xml:46:9-48:52
	android:screenOrientation
		ADDED from C:\Users\geyer\Desktop\DA Projekte\Motivity\Discover\app\src\main\AndroidManifest.xml:48:13-49
	android:name
		ADDED from C:\Users\geyer\Desktop\DA Projekte\Motivity\Discover\app\src\main\AndroidManifest.xml:47:13-32
activity#at.markusgeyer.discover.BrowserView
ADDED from C:\Users\geyer\Desktop\DA Projekte\Motivity\Discover\app\src\main\AndroidManifest.xml:49:9-51:52
	android:screenOrientation
		ADDED from C:\Users\geyer\Desktop\DA Projekte\Motivity\Discover\app\src\main\AndroidManifest.xml:51:13-49
	android:name
		ADDED from C:\Users\geyer\Desktop\DA Projekte\Motivity\Discover\app\src\main\AndroidManifest.xml:50:13-40
activity#at.markusgeyer.discover.Login
ADDED from C:\Users\geyer\Desktop\DA Projekte\Motivity\Discover\app\src\main\AndroidManifest.xml:52:9-55:20
	android:screenOrientation
		ADDED from C:\Users\geyer\Desktop\DA Projekte\Motivity\Discover\app\src\main\AndroidManifest.xml:54:13-49
	android:name
		ADDED from C:\Users\geyer\Desktop\DA Projekte\Motivity\Discover\app\src\main\AndroidManifest.xml:53:13-34
activity#at.markusgeyer.discover.Einstellungen
ADDED from C:\Users\geyer\Desktop\DA Projekte\Motivity\Discover\app\src\main\AndroidManifest.xml:56:9-58:52
	android:screenOrientation
		ADDED from C:\Users\geyer\Desktop\DA Projekte\Motivity\Discover\app\src\main\AndroidManifest.xml:58:13-49
	android:name
		ADDED from C:\Users\geyer\Desktop\DA Projekte\Motivity\Discover\app\src\main\AndroidManifest.xml:57:13-42
activity#at.markusgeyer.discover.Team
ADDED from C:\Users\geyer\Desktop\DA Projekte\Motivity\Discover\app\src\main\AndroidManifest.xml:59:9-61:52
	android:screenOrientation
		ADDED from C:\Users\geyer\Desktop\DA Projekte\Motivity\Discover\app\src\main\AndroidManifest.xml:61:13-49
	android:name
		ADDED from C:\Users\geyer\Desktop\DA Projekte\Motivity\Discover\app\src\main\AndroidManifest.xml:60:13-33
activity#at.markusgeyer.discover.Erfolge
ADDED from C:\Users\geyer\Desktop\DA Projekte\Motivity\Discover\app\src\main\AndroidManifest.xml:62:9-64:52
	android:screenOrientation
		ADDED from C:\Users\geyer\Desktop\DA Projekte\Motivity\Discover\app\src\main\AndroidManifest.xml:64:13-49
	android:name
		ADDED from C:\Users\geyer\Desktop\DA Projekte\Motivity\Discover\app\src\main\AndroidManifest.xml:63:13-36
uses-sdk
INJECTED from C:\Users\geyer\Desktop\DA Projekte\Motivity\Discover\app\src\main\AndroidManifest.xml reason: use-sdk injection requested
INJECTED from C:\Users\geyer\Desktop\DA Projekte\Motivity\Discover\app\src\main\AndroidManifest.xml
INJECTED from C:\Users\geyer\Desktop\DA Projekte\Motivity\Discover\app\src\main\AndroidManifest.xml
MERGED from [com.android.support:design:26.1.0] C:\Users\geyer\.gradle\caches\transforms-1\files-1.1\design-26.1.0.aar\d63f2b6444177493cc8ca32942131b60\AndroidManifest.xml:21:5-23:62
MERGED from [com.android.support:design:26.1.0] C:\Users\geyer\.gradle\caches\transforms-1\files-1.1\design-26.1.0.aar\d63f2b6444177493cc8ca32942131b60\AndroidManifest.xml:21:5-23:62
MERGED from [com.airbnb.android:lottie:2.5.0] C:\Users\geyer\.gradle\caches\transforms-1\files-1.1\lottie-2.5.0.aar\6013bd726ed8cffdf69a27d4190edba2\AndroidManifest.xml:8:5-10:41
MERGED from [com.airbnb.android:lottie:2.5.0] C:\Users\geyer\.gradle\caches\transforms-1\files-1.1\lottie-2.5.0.aar\6013bd726ed8cffdf69a27d4190edba2\AndroidManifest.xml:8:5-10:41
MERGED from [com.android.support:appcompat-v7:27.0.2] C:\Users\geyer\.gradle\caches\transforms-1\files-1.1\appcompat-v7-27.0.2.aar\0b9b4b4636823e7a188ac91acd111c32\AndroidManifest.xml:20:5-44
MERGED from [com.android.support:appcompat-v7:27.0.2] C:\Users\geyer\.gradle\caches\transforms-1\files-1.1\appcompat-v7-27.0.2.aar\0b9b4b4636823e7a188ac91acd111c32\AndroidManifest.xml:20:5-44
MERGED from [com.android.support.constraint:constraint-layout:1.1.3] C:\Users\geyer\.gradle\caches\transforms-1\files-1.1\constraint-layout-1.1.3.aar\a9726e203de594a8c201fcae021152f3\AndroidManifest.xml:5:5-7:41
MERGED from [com.android.support.constraint:constraint-layout:1.1.3] C:\Users\geyer\.gradle\caches\transforms-1\files-1.1\constraint-layout-1.1.3.aar\a9726e203de594a8c201fcae021152f3\AndroidManifest.xml:5:5-7:41
MERGED from [com.android.support:transition:26.1.0] C:\Users\geyer\.gradle\caches\transforms-1\files-1.1\transition-26.1.0.aar\a1cde4bd777111541c79e1f73ac8385d\AndroidManifest.xml:20:5-44
MERGED from [com.android.support:transition:26.1.0] C:\Users\geyer\.gradle\caches\transforms-1\files-1.1\transition-26.1.0.aar\a1cde4bd777111541c79e1f73ac8385d\AndroidManifest.xml:20:5-44
MERGED from [com.google.android.gms:play-services-fitness:15.0.1] C:\Users\geyer\.gradle\caches\transforms-1\files-1.1\play-services-fitness-15.0.1.aar\d34acd241c339ed78603297beeffcb2c\AndroidManifest.xml:20:5-44
MERGED from [com.google.android.gms:play-services-fitness:15.0.1] C:\Users\geyer\.gradle\caches\transforms-1\files-1.1\play-services-fitness-15.0.1.aar\d34acd241c339ed78603297beeffcb2c\AndroidManifest.xml:20:5-44
MERGED from [com.google.android.gms:play-services-auth:15.0.1] C:\Users\geyer\.gradle\caches\transforms-1\files-1.1\play-services-auth-15.0.1.aar\4c6bb04ff641177497674d864f3c0d04\AndroidManifest.xml:20:5-44
MERGED from [com.google.android.gms:play-services-auth:15.0.1] C:\Users\geyer\.gradle\caches\transforms-1\files-1.1\play-services-auth-15.0.1.aar\4c6bb04ff641177497674d864f3c0d04\AndroidManifest.xml:20:5-44
MERGED from [com.google.firebase:firebase-auth:16.0.2] C:\Users\geyer\.gradle\caches\transforms-1\files-1.1\firebase-auth-16.0.2.aar\60f0c4d77c4d3c814bedac1d9dee0f3f\AndroidManifest.xml:20:5-44
MERGED from [com.google.firebase:firebase-auth:16.0.2] C:\Users\geyer\.gradle\caches\transforms-1\files-1.1\firebase-auth-16.0.2.aar\60f0c4d77c4d3c814bedac1d9dee0f3f\AndroidManifest.xml:20:5-44
MERGED from [com.google.firebase:firebase-firestore:16.0.0] C:\Users\geyer\.gradle\caches\transforms-1\files-1.1\firebase-firestore-16.0.0.aar\89f77b6b80c9ed18b20ff612c9b3a91a\AndroidManifest.xml:6:5-8:41
MERGED from [com.google.firebase:firebase-firestore:16.0.0] C:\Users\geyer\.gradle\caches\transforms-1\files-1.1\firebase-firestore-16.0.0.aar\89f77b6b80c9ed18b20ff612c9b3a91a\AndroidManifest.xml:6:5-8:41
MERGED from [com.google.firebase:firebase-storage:15.0.0] C:\Users\geyer\.gradle\caches\transforms-1\files-1.1\firebase-storage-15.0.0.aar\75b5274ed9d7497830bd102361f41324\AndroidManifest.xml:6:5-44
MERGED from [com.google.firebase:firebase-storage:15.0.0] C:\Users\geyer\.gradle\caches\transforms-1\files-1.1\firebase-storage-15.0.0.aar\75b5274ed9d7497830bd102361f41324\AndroidManifest.xml:6:5-44
MERGED from [com.google.android.gms:play-services-location:15.0.1] C:\Users\geyer\.gradle\caches\transforms-1\files-1.1\play-services-location-15.0.1.aar\8831845bca179e0085df7e3cb255dcb3\AndroidManifest.xml:5:5-44
MERGED from [com.google.android.gms:play-services-location:15.0.1] C:\Users\geyer\.gradle\caches\transforms-1\files-1.1\play-services-location-15.0.1.aar\8831845bca179e0085df7e3cb255dcb3\AndroidManifest.xml:5:5-44
MERGED from [com.google.android.gms:play-services-auth-api-phone:15.0.1] C:\Users\geyer\.gradle\caches\transforms-1\files-1.1\play-services-auth-api-phone-15.0.1.aar\d579e7cd98d9da75902bdb27f34562d5\AndroidManifest.xml:5:5-44
MERGED from [com.google.android.gms:play-services-auth-api-phone:15.0.1] C:\Users\geyer\.gradle\caches\transforms-1\files-1.1\play-services-auth-api-phone-15.0.1.aar\d579e7cd98d9da75902bdb27f34562d5\AndroidManifest.xml:5:5-44
MERGED from [com.google.android.gms:play-services-auth-base:15.0.1] C:\Users\geyer\.gradle\caches\transforms-1\files-1.1\play-services-auth-base-15.0.1.aar\ff0bd16f9c578f0afd7912fa59f7fbc4\AndroidManifest.xml:5:5-44
MERGED from [com.google.android.gms:play-services-auth-base:15.0.1] C:\Users\geyer\.gradle\caches\transforms-1\files-1.1\play-services-auth-base-15.0.1.aar\ff0bd16f9c578f0afd7912fa59f7fbc4\AndroidManifest.xml:5:5-44
MERGED from [com.google.android.gms:play-services-flags:15.0.1] C:\Users\geyer\.gradle\caches\transforms-1\files-1.1\play-services-flags-15.0.1.aar\1e762e54a5117da65061cfc760acc6d0\AndroidManifest.xml:20:5-44
MERGED from [com.google.android.gms:play-services-flags:15.0.1] C:\Users\geyer\.gradle\caches\transforms-1\files-1.1\play-services-flags-15.0.1.aar\1e762e54a5117da65061cfc760acc6d0\AndroidManifest.xml:20:5-44
MERGED from [com.google.firebase:firebase-auth-interop:16.0.0] C:\Users\geyer\.gradle\caches\transforms-1\files-1.1\firebase-auth-interop-16.0.0.aar\7ded5d1fa9f70c656bd9a24db08d8149\AndroidManifest.xml:5:5-44
MERGED from [com.google.firebase:firebase-auth-interop:16.0.0] C:\Users\geyer\.gradle\caches\transforms-1\files-1.1\firebase-auth-interop-16.0.0.aar\7ded5d1fa9f70c656bd9a24db08d8149\AndroidManifest.xml:5:5-44
MERGED from [com.google.firebase:firebase-core:16.0.0] C:\Users\geyer\.gradle\caches\transforms-1\files-1.1\firebase-core-16.0.0.aar\ca2dc7e3a11016a1daddf4352499751b\AndroidManifest.xml:5:5-44
MERGED from [com.google.firebase:firebase-core:16.0.0] C:\Users\geyer\.gradle\caches\transforms-1\files-1.1\firebase-core-16.0.0.aar\ca2dc7e3a11016a1daddf4352499751b\AndroidManifest.xml:5:5-44
MERGED from [com.google.firebase:firebase-measurement-connector-impl:16.0.0] C:\Users\geyer\.gradle\caches\transforms-1\files-1.1\firebase-measurement-connector-impl-16.0.0.aar\3c0f58d7d3bda94f73c7cbdbe6321cac\AndroidManifest.xml:20:5-44
MERGED from [com.google.firebase:firebase-measurement-connector-impl:16.0.0] C:\Users\geyer\.gradle\caches\transforms-1\files-1.1\firebase-measurement-connector-impl-16.0.0.aar\3c0f58d7d3bda94f73c7cbdbe6321cac\AndroidManifest.xml:20:5-44
MERGED from [com.google.firebase:firebase-analytics:16.0.0] C:\Users\geyer\.gradle\caches\transforms-1\files-1.1\firebase-analytics-16.0.0.aar\f0c9330b807bc5d4105826e7cc4c560a\AndroidManifest.xml:20:5-44
MERGED from [com.google.firebase:firebase-analytics:16.0.0] C:\Users\geyer\.gradle\caches\transforms-1\files-1.1\firebase-analytics-16.0.0.aar\f0c9330b807bc5d4105826e7cc4c560a\AndroidManifest.xml:20:5-44
MERGED from [com.google.firebase:firebase-analytics-impl:16.0.0] C:\Users\geyer\.gradle\caches\transforms-1\files-1.1\firebase-analytics-impl-16.0.0.aar\3f1056391bacf16c66eb606560958f02\AndroidManifest.xml:20:5-44
MERGED from [com.google.firebase:firebase-analytics-impl:16.0.0] C:\Users\geyer\.gradle\caches\transforms-1\files-1.1\firebase-analytics-impl-16.0.0.aar\3f1056391bacf16c66eb606560958f02\AndroidManifest.xml:20:5-44
MERGED from [com.google.firebase:firebase-iid:16.0.0] C:\Users\geyer\.gradle\caches\transforms-1\files-1.1\firebase-iid-16.0.0.aar\9c078a6938805412044a44a5bf288248\AndroidManifest.xml:20:5-44
MERGED from [com.google.firebase:firebase-iid:16.0.0] C:\Users\geyer\.gradle\caches\transforms-1\files-1.1\firebase-iid-16.0.0.aar\9c078a6938805412044a44a5bf288248\AndroidManifest.xml:20:5-44
MERGED from [com.google.firebase:firebase-iid-interop:16.0.0] C:\Users\geyer\.gradle\caches\transforms-1\files-1.1\firebase-iid-interop-16.0.0.aar\e6a4d8925fe12175b6864de85fe94a9d\AndroidManifest.xml:5:5-44
MERGED from [com.google.firebase:firebase-iid-interop:16.0.0] C:\Users\geyer\.gradle\caches\transforms-1\files-1.1\firebase-iid-interop-16.0.0.aar\e6a4d8925fe12175b6864de85fe94a9d\AndroidManifest.xml:5:5-44
MERGED from [com.google.android.gms:play-services-base:15.0.1] C:\Users\geyer\.gradle\caches\transforms-1\files-1.1\play-services-base-15.0.1.aar\3354c9b8139797483629ef05acf0ae57\AndroidManifest.xml:20:5-44
MERGED from [com.google.android.gms:play-services-base:15.0.1] C:\Users\geyer\.gradle\caches\transforms-1\files-1.1\play-services-base-15.0.1.aar\3354c9b8139797483629ef05acf0ae57\AndroidManifest.xml:20:5-44
MERGED from [com.google.firebase:firebase-common:16.0.0] C:\Users\geyer\.gradle\caches\transforms-1\files-1.1\firebase-common-16.0.0.aar\6c6fa18fcd6bbf4979ecad1696e72ca0\AndroidManifest.xml:5:5-6:37
MERGED from [com.google.firebase:firebase-common:16.0.0] C:\Users\geyer\.gradle\caches\transforms-1\files-1.1\firebase-common-16.0.0.aar\6c6fa18fcd6bbf4979ecad1696e72ca0\AndroidManifest.xml:5:5-6:37
MERGED from [com.google.android.gms:play-services-tasks:15.0.1] C:\Users\geyer\.gradle\caches\transforms-1\files-1.1\play-services-tasks-15.0.1.aar\9c36ed275152a4b1b8f7c47be3795645\AndroidManifest.xml:5:5-44
MERGED from [com.google.android.gms:play-services-tasks:15.0.1] C:\Users\geyer\.gradle\caches\transforms-1\files-1.1\play-services-tasks-15.0.1.aar\9c36ed275152a4b1b8f7c47be3795645\AndroidManifest.xml:5:5-44
MERGED from [com.google.firebase:firebase-database-collection:15.0.1] C:\Users\geyer\.gradle\caches\transforms-1\files-1.1\firebase-database-collection-15.0.1.aar\dcc4c371b3740f5e54bd6dd832217e27\AndroidManifest.xml:6:5-44
MERGED from [com.google.firebase:firebase-database-collection:15.0.1] C:\Users\geyer\.gradle\caches\transforms-1\files-1.1\firebase-database-collection-15.0.1.aar\dcc4c371b3740f5e54bd6dd832217e27\AndroidManifest.xml:6:5-44
MERGED from [com.google.firebase:firebase-storage-common:15.0.0] C:\Users\geyer\.gradle\caches\transforms-1\files-1.1\firebase-storage-common-15.0.0.aar\ee1fba89a8d80a8b4a5c1073c14ca10a\AndroidManifest.xml:6:5-44
MERGED from [com.google.firebase:firebase-storage-common:15.0.0] C:\Users\geyer\.gradle\caches\transforms-1\files-1.1\firebase-storage-common-15.0.0.aar\ee1fba89a8d80a8b4a5c1073c14ca10a\AndroidManifest.xml:6:5-44
MERGED from [com.google.android.gms:play-services-places-placereport:15.0.1] C:\Users\geyer\.gradle\caches\transforms-1\files-1.1\play-services-places-placereport-15.0.1.aar\9762b945cde74b8f1263b91fa87898db\AndroidManifest.xml:20:5-44
MERGED from [com.google.android.gms:play-services-places-placereport:15.0.1] C:\Users\geyer\.gradle\caches\transforms-1\files-1.1\play-services-places-placereport-15.0.1.aar\9762b945cde74b8f1263b91fa87898db\AndroidManifest.xml:20:5-44
MERGED from [com.google.firebase:firebase-measurement-connector:16.0.0] C:\Users\geyer\.gradle\caches\transforms-1\files-1.1\firebase-measurement-connector-16.0.0.aar\c79f69c246086d816af3bffa3f6e91a0\AndroidManifest.xml:20:5-44
MERGED from [com.google.firebase:firebase-measurement-connector:16.0.0] C:\Users\geyer\.gradle\caches\transforms-1\files-1.1\firebase-measurement-connector-16.0.0.aar\c79f69c246086d816af3bffa3f6e91a0\AndroidManifest.xml:20:5-44
MERGED from [com.google.android.gms:play-services-ads-identifier:15.0.1] C:\Users\geyer\.gradle\caches\transforms-1\files-1.1\play-services-ads-identifier-15.0.1.aar\fcf72d927fa4f2173e6aff9e46eabb33\AndroidManifest.xml:20:5-44
MERGED from [com.google.android.gms:play-services-ads-identifier:15.0.1] C:\Users\geyer\.gradle\caches\transforms-1\files-1.1\play-services-ads-identifier-15.0.1.aar\fcf72d927fa4f2173e6aff9e46eabb33\AndroidManifest.xml:20:5-44
MERGED from [com.google.android.gms:play-services-stats:15.0.1] C:\Users\geyer\.gradle\caches\transforms-1\files-1.1\play-services-stats-15.0.1.aar\a7dba7f2e9f23f5a960dc82babbfd97d\AndroidManifest.xml:5:5-44
MERGED from [com.google.android.gms:play-services-stats:15.0.1] C:\Users\geyer\.gradle\caches\transforms-1\files-1.1\play-services-stats-15.0.1.aar\a7dba7f2e9f23f5a960dc82babbfd97d\AndroidManifest.xml:5:5-44
MERGED from [com.google.android.gms:play-services-basement:15.0.1] C:\Users\geyer\.gradle\caches\transforms-1\files-1.1\play-services-basement-15.0.1.aar\67243ccb9bd56bafe83bde469c597df7\AndroidManifest.xml:20:5-44
MERGED from [com.google.android.gms:play-services-basement:15.0.1] C:\Users\geyer\.gradle\caches\transforms-1\files-1.1\play-services-basement-15.0.1.aar\67243ccb9bd56bafe83bde469c597df7\AndroidManifest.xml:20:5-44
MERGED from [com.android.support:support-v4:26.1.0] C:\Users\geyer\.gradle\caches\transforms-1\files-1.1\support-v4-26.1.0.aar\3131cf182967fbae47562005e2e2ea7d\AndroidManifest.xml:21:5-23:54
MERGED from [com.android.support:support-v4:26.1.0] C:\Users\geyer\.gradle\caches\transforms-1\files-1.1\support-v4-26.1.0.aar\3131cf182967fbae47562005e2e2ea7d\AndroidManifest.xml:21:5-23:54
MERGED from [com.crashlytics.sdk.android:crashlytics:2.9.5] C:\Users\geyer\.gradle\caches\transforms-1\files-1.1\crashlytics-2.9.5.aar\480b58d1bbe1ce75a2297dd46ee77da4\AndroidManifest.xml:7:5-43
MERGED from [com.crashlytics.sdk.android:crashlytics:2.9.5] C:\Users\geyer\.gradle\caches\transforms-1\files-1.1\crashlytics-2.9.5.aar\480b58d1bbe1ce75a2297dd46ee77da4\AndroidManifest.xml:7:5-43
MERGED from [com.android.support:customtabs:26.1.0] C:\Users\geyer\.gradle\caches\transforms-1\files-1.1\customtabs-26.1.0.aar\fcb76f56f5e0967e4701efc252e87458\AndroidManifest.xml:20:5-44
MERGED from [com.android.support:customtabs:26.1.0] C:\Users\geyer\.gradle\caches\transforms-1\files-1.1\customtabs-26.1.0.aar\fcb76f56f5e0967e4701efc252e87458\AndroidManifest.xml:20:5-44
MERGED from [pl.droidsonroids.gif:android-gif-drawable:1.2.16] C:\Users\geyer\.gradle\caches\transforms-1\files-1.1\android-gif-drawable-1.2.16.aar\f3fbab332834fcf7732d39e08d9d534b\AndroidManifest.xml:6:5-8:41
MERGED from [pl.droidsonroids.gif:android-gif-drawable:1.2.16] C:\Users\geyer\.gradle\caches\transforms-1\files-1.1\android-gif-drawable-1.2.16.aar\f3fbab332834fcf7732d39e08d9d534b\AndroidManifest.xml:6:5-8:41
MERGED from [de.hdodenhof:circleimageview:2.2.0] C:\Users\geyer\.gradle\caches\transforms-1\files-1.1\circleimageview-2.2.0.aar\e73df2c9b155b5dd36ce6a9881906633\AndroidManifest.xml:5:5-7:41
MERGED from [de.hdodenhof:circleimageview:2.2.0] C:\Users\geyer\.gradle\caches\transforms-1\files-1.1\circleimageview-2.2.0.aar\e73df2c9b155b5dd36ce6a9881906633\AndroidManifest.xml:5:5-7:41
MERGED from [com.android.support:recyclerview-v7:26.1.0] C:\Users\geyer\.gradle\caches\transforms-1\files-1.1\recyclerview-v7-26.1.0.aar\e80f7921fba7643932e5918bf10cfffc\AndroidManifest.xml:20:5-44
MERGED from [com.android.support:recyclerview-v7:26.1.0] C:\Users\geyer\.gradle\caches\transforms-1\files-1.1\recyclerview-v7-26.1.0.aar\e80f7921fba7643932e5918bf10cfffc\AndroidManifest.xml:20:5-44
MERGED from [com.android.support:support-media-compat:26.1.0] C:\Users\geyer\.gradle\caches\transforms-1\files-1.1\support-media-compat-26.1.0.aar\3b9419689a14b52af2249ed61d7df09d\AndroidManifest.xml:21:5-23:63
MERGED from [com.android.support:support-media-compat:26.1.0] C:\Users\geyer\.gradle\caches\transforms-1\files-1.1\support-media-compat-26.1.0.aar\3b9419689a14b52af2249ed61d7df09d\AndroidManifest.xml:21:5-23:63
MERGED from [com.android.support:support-fragment:27.0.2] C:\Users\geyer\.gradle\caches\transforms-1\files-1.1\support-fragment-27.0.2.aar\800d14121d74f67dd199d55042506b6e\AndroidManifest.xml:20:5-44
MERGED from [com.android.support:support-fragment:27.0.2] C:\Users\geyer\.gradle\caches\transforms-1\files-1.1\support-fragment-27.0.2.aar\800d14121d74f67dd199d55042506b6e\AndroidManifest.xml:20:5-44
MERGED from [com.android.support:support-core-utils:27.0.2] C:\Users\geyer\.gradle\caches\transforms-1\files-1.1\support-core-utils-27.0.2.aar\e11bb922db359a6306133c7b78cc9513\AndroidManifest.xml:20:5-44
MERGED from [com.android.support:support-core-utils:27.0.2] C:\Users\geyer\.gradle\caches\transforms-1\files-1.1\support-core-utils-27.0.2.aar\e11bb922db359a6306133c7b78cc9513\AndroidManifest.xml:20:5-44
MERGED from [com.android.support:animated-vector-drawable:27.0.2] C:\Users\geyer\.gradle\caches\transforms-1\files-1.1\animated-vector-drawable-27.0.2.aar\99f9529b1081188cf572e3402c1dce28\AndroidManifest.xml:20:5-44
MERGED from [com.android.support:animated-vector-drawable:27.0.2] C:\Users\geyer\.gradle\caches\transforms-1\files-1.1\animated-vector-drawable-27.0.2.aar\99f9529b1081188cf572e3402c1dce28\AndroidManifest.xml:20:5-44
MERGED from [com.android.support:support-vector-drawable:27.0.2] C:\Users\geyer\.gradle\caches\transforms-1\files-1.1\support-vector-drawable-27.0.2.aar\29877531d34eda2783f14ca9f9243558\AndroidManifest.xml:20:5-44
MERGED from [com.android.support:support-vector-drawable:27.0.2] C:\Users\geyer\.gradle\caches\transforms-1\files-1.1\support-vector-drawable-27.0.2.aar\29877531d34eda2783f14ca9f9243558\AndroidManifest.xml:20:5-44
MERGED from [com.android.support:support-core-ui:27.0.2] C:\Users\geyer\.gradle\caches\transforms-1\files-1.1\support-core-ui-27.0.2.aar\be9c10b76dcf95e723c16cc0d5a545a5\AndroidManifest.xml:20:5-44
MERGED from [com.android.support:support-core-ui:27.0.2] C:\Users\geyer\.gradle\caches\transforms-1\files-1.1\support-core-ui-27.0.2.aar\be9c10b76dcf95e723c16cc0d5a545a5\AndroidManifest.xml:20:5-44
MERGED from [com.android.support:support-compat:27.0.2] C:\Users\geyer\.gradle\caches\transforms-1\files-1.1\support-compat-27.0.2.aar\96b17cf8a5970f347f36d061b8394b62\AndroidManifest.xml:20:5-44
MERGED from [com.android.support:support-compat:27.0.2] C:\Users\geyer\.gradle\caches\transforms-1\files-1.1\support-compat-27.0.2.aar\96b17cf8a5970f347f36d061b8394b62\AndroidManifest.xml:20:5-44
MERGED from [android.arch.lifecycle:runtime:1.0.3] C:\Users\geyer\.gradle\caches\transforms-1\files-1.1\runtime-1.0.3.aar\c73dd66ce099a28d56ea84e56782ec6c\AndroidManifest.xml:20:5-22:41
MERGED from [android.arch.lifecycle:runtime:1.0.3] C:\Users\geyer\.gradle\caches\transforms-1\files-1.1\runtime-1.0.3.aar\c73dd66ce099a28d56ea84e56782ec6c\AndroidManifest.xml:20:5-22:41
MERGED from [com.google.firebase:protolite-well-known-types:15.0.0] C:\Users\geyer\.gradle\caches\transforms-1\files-1.1\protolite-well-known-types-15.0.0.aar\f04312f3f38fbc2a47c2f6c7707f6526\AndroidManifest.xml:7:5-9:41
MERGED from [com.google.firebase:protolite-well-known-types:15.0.0] C:\Users\geyer\.gradle\caches\transforms-1\files-1.1\protolite-well-known-types-15.0.0.aar\f04312f3f38fbc2a47c2f6c7707f6526\AndroidManifest.xml:7:5-9:41
MERGED from [com.crashlytics.sdk.android:crashlytics-core:2.6.4] C:\Users\geyer\.gradle\caches\transforms-1\files-1.1\crashlytics-core-2.6.4.aar\51d08623ec9f06ea81f835c8e2c23b3a\AndroidManifest.xml:50:5-43
MERGED from [com.crashlytics.sdk.android:crashlytics-core:2.6.4] C:\Users\geyer\.gradle\caches\transforms-1\files-1.1\crashlytics-core-2.6.4.aar\51d08623ec9f06ea81f835c8e2c23b3a\AndroidManifest.xml:50:5-43
MERGED from [com.crashlytics.sdk.android:answers:1.4.3] C:\Users\geyer\.gradle\caches\transforms-1\files-1.1\answers-1.4.3.aar\fa1936f7db518d50f8b39e34149997e8\AndroidManifest.xml:7:5-43
MERGED from [com.crashlytics.sdk.android:answers:1.4.3] C:\Users\geyer\.gradle\caches\transforms-1\files-1.1\answers-1.4.3.aar\fa1936f7db518d50f8b39e34149997e8\AndroidManifest.xml:7:5-43
MERGED from [com.crashlytics.sdk.android:beta:1.2.10] C:\Users\geyer\.gradle\caches\transforms-1\files-1.1\beta-1.2.10.aar\1c7cc45e9a5dc6a151b044be988fe33e\AndroidManifest.xml:7:5-43
MERGED from [com.crashlytics.sdk.android:beta:1.2.10] C:\Users\geyer\.gradle\caches\transforms-1\files-1.1\beta-1.2.10.aar\1c7cc45e9a5dc6a151b044be988fe33e\AndroidManifest.xml:7:5-43
MERGED from [io.fabric.sdk.android:fabric:1.4.4] C:\Users\geyer\.gradle\caches\transforms-1\files-1.1\fabric-1.4.4.aar\6cdc415c62c55326926fb05598683cf7\AndroidManifest.xml:27:5-43
MERGED from [io.fabric.sdk.android:fabric:1.4.4] C:\Users\geyer\.gradle\caches\transforms-1\files-1.1\fabric-1.4.4.aar\6cdc415c62c55326926fb05598683cf7\AndroidManifest.xml:27:5-43
MERGED from [com.google.android.gms:play-services-measurement-base:15.0.4] C:\Users\geyer\.gradle\caches\transforms-1\files-1.1\play-services-measurement-base-15.0.4.aar\a2b44dc8b5ffeadc799ee41525c8ca89\AndroidManifest.xml:20:5-44
MERGED from [com.google.android.gms:play-services-measurement-base:15.0.4] C:\Users\geyer\.gradle\caches\transforms-1\files-1.1\play-services-measurement-base-15.0.4.aar\a2b44dc8b5ffeadc799ee41525c8ca89\AndroidManifest.xml:20:5-44
INJECTED from C:\Users\geyer\Desktop\DA Projekte\Motivity\Discover\app\src\main\AndroidManifest.xml
INJECTED from C:\Users\geyer\Desktop\DA Projekte\Motivity\Discover\app\src\main\AndroidManifest.xml
	tools:overrideLibrary
		ADDED from [com.android.support:design:26.1.0] C:\Users\geyer\.gradle\caches\transforms-1\files-1.1\design-26.1.0.aar\d63f2b6444177493cc8ca32942131b60\AndroidManifest.xml:23:9-59
	android:targetSdkVersion
		INJECTED from C:\Users\geyer\Desktop\DA Projekte\Motivity\Discover\app\src\main\AndroidManifest.xml
		ADDED from C:\Users\geyer\Desktop\DA Projekte\Motivity\Discover\app\src\main\AndroidManifest.xml
		INJECTED from C:\Users\geyer\Desktop\DA Projekte\Motivity\Discover\app\src\main\AndroidManifest.xml
	android:minSdkVersion
		INJECTED from C:\Users\geyer\Desktop\DA Projekte\Motivity\Discover\app\src\main\AndroidManifest.xml
		ADDED from C:\Users\geyer\Desktop\DA Projekte\Motivity\Discover\app\src\main\AndroidManifest.xml
		INJECTED from C:\Users\geyer\Desktop\DA Projekte\Motivity\Discover\app\src\main\AndroidManifest.xml
meta-data#android.support.VERSION
ADDED from [com.android.support:design:26.1.0] C:\Users\geyer\.gradle\caches\transforms-1\files-1.1\design-26.1.0.aar\d63f2b6444177493cc8ca32942131b60\AndroidManifest.xml:26:9-28:38
MERGED from [com.android.support:transition:26.1.0] C:\Users\geyer\.gradle\caches\transforms-1\files-1.1\transition-26.1.0.aar\a1cde4bd777111541c79e1f73ac8385d\AndroidManifest.xml:23:9-25:38
MERGED from [com.android.support:transition:26.1.0] C:\Users\geyer\.gradle\caches\transforms-1\files-1.1\transition-26.1.0.aar\a1cde4bd777111541c79e1f73ac8385d\AndroidManifest.xml:23:9-25:38
MERGED from [com.android.support:support-v4:26.1.0] C:\Users\geyer\.gradle\caches\transforms-1\files-1.1\support-v4-26.1.0.aar\3131cf182967fbae47562005e2e2ea7d\AndroidManifest.xml:26:9-28:38
MERGED from [com.android.support:support-v4:26.1.0] C:\Users\geyer\.gradle\caches\transforms-1\files-1.1\support-v4-26.1.0.aar\3131cf182967fbae47562005e2e2ea7d\AndroidManifest.xml:26:9-28:38
MERGED from [com.android.support:customtabs:26.1.0] C:\Users\geyer\.gradle\caches\transforms-1\files-1.1\customtabs-26.1.0.aar\fcb76f56f5e0967e4701efc252e87458\AndroidManifest.xml:23:9-25:38
MERGED from [com.android.support:customtabs:26.1.0] C:\Users\geyer\.gradle\caches\transforms-1\files-1.1\customtabs-26.1.0.aar\fcb76f56f5e0967e4701efc252e87458\AndroidManifest.xml:23:9-25:38
MERGED from [com.android.support:recyclerview-v7:26.1.0] C:\Users\geyer\.gradle\caches\transforms-1\files-1.1\recyclerview-v7-26.1.0.aar\e80f7921fba7643932e5918bf10cfffc\AndroidManifest.xml:23:9-25:38
MERGED from [com.android.support:recyclerview-v7:26.1.0] C:\Users\geyer\.gradle\caches\transforms-1\files-1.1\recyclerview-v7-26.1.0.aar\e80f7921fba7643932e5918bf10cfffc\AndroidManifest.xml:23:9-25:38
MERGED from [com.android.support:support-media-compat:26.1.0] C:\Users\geyer\.gradle\caches\transforms-1\files-1.1\support-media-compat-26.1.0.aar\3b9419689a14b52af2249ed61d7df09d\AndroidManifest.xml:26:9-28:38
MERGED from [com.android.support:support-media-compat:26.1.0] C:\Users\geyer\.gradle\caches\transforms-1\files-1.1\support-media-compat-26.1.0.aar\3b9419689a14b52af2249ed61d7df09d\AndroidManifest.xml:26:9-28:38
	android:value
		ADDED from [com.android.support:design:26.1.0] C:\Users\geyer\.gradle\caches\transforms-1\files-1.1\design-26.1.0.aar\d63f2b6444177493cc8ca32942131b60\AndroidManifest.xml:28:13-35
	android:name
		ADDED from [com.android.support:design:26.1.0] C:\Users\geyer\.gradle\caches\transforms-1\files-1.1\design-26.1.0.aar\d63f2b6444177493cc8ca32942131b60\AndroidManifest.xml:27:13-51
activity#com.google.android.gms.auth.api.signin.internal.SignInHubActivity
ADDED from [com.google.android.gms:play-services-auth:15.0.1] C:\Users\geyer\.gradle\caches\transforms-1\files-1.1\play-services-auth-15.0.1.aar\4c6bb04ff641177497674d864f3c0d04\AndroidManifest.xml:23:9-27:75
	android:excludeFromRecents
		ADDED from [com.google.android.gms:play-services-auth:15.0.1] C:\Users\geyer\.gradle\caches\transforms-1\files-1.1\play-services-auth-15.0.1.aar\4c6bb04ff641177497674d864f3c0d04\AndroidManifest.xml:25:13-46
	android:exported
		ADDED from [com.google.android.gms:play-services-auth:15.0.1] C:\Users\geyer\.gradle\caches\transforms-1\files-1.1\play-services-auth-15.0.1.aar\4c6bb04ff641177497674d864f3c0d04\AndroidManifest.xml:26:13-37
	android:theme
		ADDED from [com.google.android.gms:play-services-auth:15.0.1] C:\Users\geyer\.gradle\caches\transforms-1\files-1.1\play-services-auth-15.0.1.aar\4c6bb04ff641177497674d864f3c0d04\AndroidManifest.xml:27:13-72
	android:name
		ADDED from [com.google.android.gms:play-services-auth:15.0.1] C:\Users\geyer\.gradle\caches\transforms-1\files-1.1\play-services-auth-15.0.1.aar\4c6bb04ff641177497674d864f3c0d04\AndroidManifest.xml:24:13-93
service#com.google.android.gms.auth.api.signin.RevocationBoundService
ADDED from [com.google.android.gms:play-services-auth:15.0.1] C:\Users\geyer\.gradle\caches\transforms-1\files-1.1\play-services-auth-15.0.1.aar\4c6bb04ff641177497674d864f3c0d04\AndroidManifest.xml:33:9-36:110
	android:exported
		ADDED from [com.google.android.gms:play-services-auth:15.0.1] C:\Users\geyer\.gradle\caches\transforms-1\files-1.1\play-services-auth-15.0.1.aar\4c6bb04ff641177497674d864f3c0d04\AndroidManifest.xml:35:13-36
	android:permission
		ADDED from [com.google.android.gms:play-services-auth:15.0.1] C:\Users\geyer\.gradle\caches\transforms-1\files-1.1\play-services-auth-15.0.1.aar\4c6bb04ff641177497674d864f3c0d04\AndroidManifest.xml:36:13-107
	android:name
		ADDED from [com.google.android.gms:play-services-auth:15.0.1] C:\Users\geyer\.gradle\caches\transforms-1\files-1.1\play-services-auth-15.0.1.aar\4c6bb04ff641177497674d864f3c0d04\AndroidManifest.xml:34:13-89
activity#com.google.firebase.auth.internal.FederatedSignInActivity
ADDED from [com.google.firebase:firebase-auth:16.0.2] C:\Users\geyer\.gradle\caches\transforms-1\files-1.1\firebase-auth-16.0.2.aar\60f0c4d77c4d3c814bedac1d9dee0f3f\AndroidManifest.xml:23:9-29:75
	android:excludeFromRecents
		ADDED from [com.google.firebase:firebase-auth:16.0.2] C:\Users\geyer\.gradle\caches\transforms-1\files-1.1\firebase-auth-16.0.2.aar\60f0c4d77c4d3c814bedac1d9dee0f3f\AndroidManifest.xml:25:13-46
	android:launchMode
		ADDED from [com.google.firebase:firebase-auth:16.0.2] C:\Users\geyer\.gradle\caches\transforms-1\files-1.1\firebase-auth-16.0.2.aar\60f0c4d77c4d3c814bedac1d9dee0f3f\AndroidManifest.xml:27:13-48
	android:exported
		ADDED from [com.google.firebase:firebase-auth:16.0.2] C:\Users\geyer\.gradle\caches\transforms-1\files-1.1\firebase-auth-16.0.2.aar\60f0c4d77c4d3c814bedac1d9dee0f3f\AndroidManifest.xml:26:13-36
	android:permission
		ADDED from [com.google.firebase:firebase-auth:16.0.2] C:\Users\geyer\.gradle\caches\transforms-1\files-1.1\firebase-auth-16.0.2.aar\60f0c4d77c4d3c814bedac1d9dee0f3f\AndroidManifest.xml:28:13-102
	android:theme
		ADDED from [com.google.firebase:firebase-auth:16.0.2] C:\Users\geyer\.gradle\caches\transforms-1\files-1.1\firebase-auth-16.0.2.aar\60f0c4d77c4d3c814bedac1d9dee0f3f\AndroidManifest.xml:29:13-72
	android:name
		ADDED from [com.google.firebase:firebase-auth:16.0.2] C:\Users\geyer\.gradle\caches\transforms-1\files-1.1\firebase-auth-16.0.2.aar\60f0c4d77c4d3c814bedac1d9dee0f3f\AndroidManifest.xml:24:13-85
service#com.google.firebase.components.ComponentDiscoveryService
ADDED from [com.google.firebase:firebase-auth:16.0.2] C:\Users\geyer\.gradle\caches\transforms-1\files-1.1\firebase-auth-16.0.2.aar\60f0c4d77c4d3c814bedac1d9dee0f3f\AndroidManifest.xml:31:9-35:19
MERGED from [com.google.firebase:firebase-measurement-connector-impl:16.0.0] C:\Users\geyer\.gradle\caches\transforms-1\files-1.1\firebase-measurement-connector-impl-16.0.0.aar\3c0f58d7d3bda94f73c7cbdbe6321cac\AndroidManifest.xml:27:9-31:19
MERGED from [com.google.firebase:firebase-measurement-connector-impl:16.0.0] C:\Users\geyer\.gradle\caches\transforms-1\files-1.1\firebase-measurement-connector-impl-16.0.0.aar\3c0f58d7d3bda94f73c7cbdbe6321cac\AndroidManifest.xml:27:9-31:19
MERGED from [com.google.firebase:firebase-iid:16.0.0] C:\Users\geyer\.gradle\caches\transforms-1\files-1.1\firebase-iid-16.0.0.aar\9c078a6938805412044a44a5bf288248\AndroidManifest.xml:35:9-39:19
MERGED from [com.google.firebase:firebase-iid:16.0.0] C:\Users\geyer\.gradle\caches\transforms-1\files-1.1\firebase-iid-16.0.0.aar\9c078a6938805412044a44a5bf288248\AndroidManifest.xml:35:9-39:19
	android:name
		ADDED from [com.google.firebase:firebase-auth:16.0.2] C:\Users\geyer\.gradle\caches\transforms-1\files-1.1\firebase-auth-16.0.2.aar\60f0c4d77c4d3c814bedac1d9dee0f3f\AndroidManifest.xml:31:18-89
meta-data#com.google.firebase.components:com.google.firebase.auth.FirebaseAuthRegistrar
ADDED from [com.google.firebase:firebase-auth:16.0.2] C:\Users\geyer\.gradle\caches\transforms-1\files-1.1\firebase-auth-16.0.2.aar\60f0c4d77c4d3c814bedac1d9dee0f3f\AndroidManifest.xml:32:13-34:85
	android:value
		ADDED from [com.google.firebase:firebase-auth:16.0.2] C:\Users\geyer\.gradle\caches\transforms-1\files-1.1\firebase-auth-16.0.2.aar\60f0c4d77c4d3c814bedac1d9dee0f3f\AndroidManifest.xml:34:17-82
	android:name
		ADDED from [com.google.firebase:firebase-auth:16.0.2] C:\Users\geyer\.gradle\caches\transforms-1\files-1.1\firebase-auth-16.0.2.aar\60f0c4d77c4d3c814bedac1d9dee0f3f\AndroidManifest.xml:33:17-109
uses-permission#android.permission.WAKE_LOCK
ADDED from [com.google.firebase:firebase-measurement-connector-impl:16.0.0] C:\Users\geyer\.gradle\caches\transforms-1\files-1.1\firebase-measurement-connector-impl-16.0.0.aar\3c0f58d7d3bda94f73c7cbdbe6321cac\AndroidManifest.xml:24:5-68
MERGED from [com.google.firebase:firebase-analytics:16.0.0] C:\Users\geyer\.gradle\caches\transforms-1\files-1.1\firebase-analytics-16.0.0.aar\f0c9330b807bc5d4105826e7cc4c560a\AndroidManifest.xml:25:5-68
MERGED from [com.google.firebase:firebase-analytics:16.0.0] C:\Users\geyer\.gradle\caches\transforms-1\files-1.1\firebase-analytics-16.0.0.aar\f0c9330b807bc5d4105826e7cc4c560a\AndroidManifest.xml:25:5-68
MERGED from [com.google.firebase:firebase-analytics-impl:16.0.0] C:\Users\geyer\.gradle\caches\transforms-1\files-1.1\firebase-analytics-impl-16.0.0.aar\3f1056391bacf16c66eb606560958f02\AndroidManifest.xml:25:5-68
MERGED from [com.google.firebase:firebase-analytics-impl:16.0.0] C:\Users\geyer\.gradle\caches\transforms-1\files-1.1\firebase-analytics-impl-16.0.0.aar\3f1056391bacf16c66eb606560958f02\AndroidManifest.xml:25:5-68
MERGED from [com.google.firebase:firebase-iid:16.0.0] C:\Users\geyer\.gradle\caches\transforms-1\files-1.1\firebase-iid-16.0.0.aar\9c078a6938805412044a44a5bf288248\AndroidManifest.xml:24:5-68
MERGED from [com.google.firebase:firebase-iid:16.0.0] C:\Users\geyer\.gradle\caches\transforms-1\files-1.1\firebase-iid-16.0.0.aar\9c078a6938805412044a44a5bf288248\AndroidManifest.xml:24:5-68
	android:name
		ADDED from [com.google.firebase:firebase-measurement-connector-impl:16.0.0] C:\Users\geyer\.gradle\caches\transforms-1\files-1.1\firebase-measurement-connector-impl-16.0.0.aar\3c0f58d7d3bda94f73c7cbdbe6321cac\AndroidManifest.xml:24:22-65
meta-data#com.google.firebase.components:com.google.firebase.analytics.connector.internal.AnalyticsConnectorRegistrar
ADDED from [com.google.firebase:firebase-measurement-connector-impl:16.0.0] C:\Users\geyer\.gradle\caches\transforms-1\files-1.1\firebase-measurement-connector-impl-16.0.0.aar\3c0f58d7d3bda94f73c7cbdbe6321cac\AndroidManifest.xml:28:13-30:85
	android:value
		ADDED from [com.google.firebase:firebase-measurement-connector-impl:16.0.0] C:\Users\geyer\.gradle\caches\transforms-1\files-1.1\firebase-measurement-connector-impl-16.0.0.aar\3c0f58d7d3bda94f73c7cbdbe6321cac\AndroidManifest.xml:30:17-82
	android:name
		ADDED from [com.google.firebase:firebase-measurement-connector-impl:16.0.0] C:\Users\geyer\.gradle\caches\transforms-1\files-1.1\firebase-measurement-connector-impl-16.0.0.aar\3c0f58d7d3bda94f73c7cbdbe6321cac\AndroidManifest.xml:29:17-139
uses-permission#com.google.android.finsky.permission.BIND_GET_INSTALL_REFERRER_SERVICE
ADDED from [com.google.firebase:firebase-analytics:16.0.0] C:\Users\geyer\.gradle\caches\transforms-1\files-1.1\firebase-analytics-16.0.0.aar\f0c9330b807bc5d4105826e7cc4c560a\AndroidManifest.xml:26:5-110
MERGED from [com.google.firebase:firebase-analytics-impl:16.0.0] C:\Users\geyer\.gradle\caches\transforms-1\files-1.1\firebase-analytics-impl-16.0.0.aar\3f1056391bacf16c66eb606560958f02\AndroidManifest.xml:26:5-110
MERGED from [com.google.firebase:firebase-analytics-impl:16.0.0] C:\Users\geyer\.gradle\caches\transforms-1\files-1.1\firebase-analytics-impl-16.0.0.aar\3f1056391bacf16c66eb606560958f02\AndroidManifest.xml:26:5-110
	android:name
		ADDED from [com.google.firebase:firebase-analytics:16.0.0] C:\Users\geyer\.gradle\caches\transforms-1\files-1.1\firebase-analytics-16.0.0.aar\f0c9330b807bc5d4105826e7cc4c560a\AndroidManifest.xml:26:22-107
receiver#com.google.android.gms.measurement.AppMeasurementReceiver
ADDED from [com.google.firebase:firebase-analytics:16.0.0] C:\Users\geyer\.gradle\caches\transforms-1\files-1.1\firebase-analytics-16.0.0.aar\f0c9330b807bc5d4105826e7cc4c560a\AndroidManifest.xml:29:9-33:20
MERGED from [com.google.firebase:firebase-analytics-impl:16.0.0] C:\Users\geyer\.gradle\caches\transforms-1\files-1.1\firebase-analytics-impl-16.0.0.aar\3f1056391bacf16c66eb606560958f02\AndroidManifest.xml:29:9-33:20
MERGED from [com.google.firebase:firebase-analytics-impl:16.0.0] C:\Users\geyer\.gradle\caches\transforms-1\files-1.1\firebase-analytics-impl-16.0.0.aar\3f1056391bacf16c66eb606560958f02\AndroidManifest.xml:29:9-33:20
	android:enabled
		ADDED from [com.google.firebase:firebase-analytics:16.0.0] C:\Users\geyer\.gradle\caches\transforms-1\files-1.1\firebase-analytics-16.0.0.aar\f0c9330b807bc5d4105826e7cc4c560a\AndroidManifest.xml:31:13-35
	android:exported
		ADDED from [com.google.firebase:firebase-analytics:16.0.0] C:\Users\geyer\.gradle\caches\transforms-1\files-1.1\firebase-analytics-16.0.0.aar\f0c9330b807bc5d4105826e7cc4c560a\AndroidManifest.xml:32:13-37
	android:name
		ADDED from [com.google.firebase:firebase-analytics:16.0.0] C:\Users\geyer\.gradle\caches\transforms-1\files-1.1\firebase-analytics-16.0.0.aar\f0c9330b807bc5d4105826e7cc4c560a\AndroidManifest.xml:30:13-85
receiver#com.google.android.gms.measurement.AppMeasurementInstallReferrerReceiver
ADDED from [com.google.firebase:firebase-analytics:16.0.0] C:\Users\geyer\.gradle\caches\transforms-1\files-1.1\firebase-analytics-16.0.0.aar\f0c9330b807bc5d4105826e7cc4c560a\AndroidManifest.xml:34:9-42:20
	android:enabled
		ADDED from [com.google.firebase:firebase-analytics:16.0.0] C:\Users\geyer\.gradle\caches\transforms-1\files-1.1\firebase-analytics-16.0.0.aar\f0c9330b807bc5d4105826e7cc4c560a\AndroidManifest.xml:36:13-35
	android:exported
		ADDED from [com.google.firebase:firebase-analytics:16.0.0] C:\Users\geyer\.gradle\caches\transforms-1\files-1.1\firebase-analytics-16.0.0.aar\f0c9330b807bc5d4105826e7cc4c560a\AndroidManifest.xml:37:13-36
	android:permission
		ADDED from [com.google.firebase:firebase-analytics:16.0.0] C:\Users\geyer\.gradle\caches\transforms-1\files-1.1\firebase-analytics-16.0.0.aar\f0c9330b807bc5d4105826e7cc4c560a\AndroidManifest.xml:38:13-69
	android:name
		ADDED from [com.google.firebase:firebase-analytics:16.0.0] C:\Users\geyer\.gradle\caches\transforms-1\files-1.1\firebase-analytics-16.0.0.aar\f0c9330b807bc5d4105826e7cc4c560a\AndroidManifest.xml:35:13-100
intent-filter#action:name:com.android.vending.INSTALL_REFERRER
ADDED from [com.google.firebase:firebase-analytics:16.0.0] C:\Users\geyer\.gradle\caches\transforms-1\files-1.1\firebase-analytics-16.0.0.aar\f0c9330b807bc5d4105826e7cc4c560a\AndroidManifest.xml:39:13-41:29
action#com.android.vending.INSTALL_REFERRER
ADDED from [com.google.firebase:firebase-analytics:16.0.0] C:\Users\geyer\.gradle\caches\transforms-1\files-1.1\firebase-analytics-16.0.0.aar\f0c9330b807bc5d4105826e7cc4c560a\AndroidManifest.xml:40:17-79
	android:name
		ADDED from [com.google.firebase:firebase-analytics:16.0.0] C:\Users\geyer\.gradle\caches\transforms-1\files-1.1\firebase-analytics-16.0.0.aar\f0c9330b807bc5d4105826e7cc4c560a\AndroidManifest.xml:40:25-76
service#com.google.android.gms.measurement.AppMeasurementService
ADDED from [com.google.firebase:firebase-analytics:16.0.0] C:\Users\geyer\.gradle\caches\transforms-1\files-1.1\firebase-analytics-16.0.0.aar\f0c9330b807bc5d4105826e7cc4c560a\AndroidManifest.xml:44:9-47:40
MERGED from [com.google.firebase:firebase-analytics-impl:16.0.0] C:\Users\geyer\.gradle\caches\transforms-1\files-1.1\firebase-analytics-impl-16.0.0.aar\3f1056391bacf16c66eb606560958f02\AndroidManifest.xml:35:9-38:40
MERGED from [com.google.firebase:firebase-analytics-impl:16.0.0] C:\Users\geyer\.gradle\caches\transforms-1\files-1.1\firebase-analytics-impl-16.0.0.aar\3f1056391bacf16c66eb606560958f02\AndroidManifest.xml:35:9-38:40
	android:enabled
		ADDED from [com.google.firebase:firebase-analytics:16.0.0] C:\Users\geyer\.gradle\caches\transforms-1\files-1.1\firebase-analytics-16.0.0.aar\f0c9330b807bc5d4105826e7cc4c560a\AndroidManifest.xml:46:13-35
	android:exported
		ADDED from [com.google.firebase:firebase-analytics:16.0.0] C:\Users\geyer\.gradle\caches\transforms-1\files-1.1\firebase-analytics-16.0.0.aar\f0c9330b807bc5d4105826e7cc4c560a\AndroidManifest.xml:47:13-37
	android:name
		ADDED from [com.google.firebase:firebase-analytics:16.0.0] C:\Users\geyer\.gradle\caches\transforms-1\files-1.1\firebase-analytics-16.0.0.aar\f0c9330b807bc5d4105826e7cc4c560a\AndroidManifest.xml:45:13-84
service#com.google.android.gms.measurement.AppMeasurementJobService
ADDED from [com.google.firebase:firebase-analytics:16.0.0] C:\Users\geyer\.gradle\caches\transforms-1\files-1.1\firebase-analytics-16.0.0.aar\f0c9330b807bc5d4105826e7cc4c560a\AndroidManifest.xml:48:9-52:72
	android:enabled
		ADDED from [com.google.firebase:firebase-analytics:16.0.0] C:\Users\geyer\.gradle\caches\transforms-1\files-1.1\firebase-analytics-16.0.0.aar\f0c9330b807bc5d4105826e7cc4c560a\AndroidManifest.xml:50:13-35
	android:exported
		ADDED from [com.google.firebase:firebase-analytics:16.0.0] C:\Users\geyer\.gradle\caches\transforms-1\files-1.1\firebase-analytics-16.0.0.aar\f0c9330b807bc5d4105826e7cc4c560a\AndroidManifest.xml:51:13-37
	android:permission
		ADDED from [com.google.firebase:firebase-analytics:16.0.0] C:\Users\geyer\.gradle\caches\transforms-1\files-1.1\firebase-analytics-16.0.0.aar\f0c9330b807bc5d4105826e7cc4c560a\AndroidManifest.xml:52:13-69
	android:name
		ADDED from [com.google.firebase:firebase-analytics:16.0.0] C:\Users\geyer\.gradle\caches\transforms-1\files-1.1\firebase-analytics-16.0.0.aar\f0c9330b807bc5d4105826e7cc4c560a\AndroidManifest.xml:49:13-87
uses-permission#com.google.android.c2dm.permission.RECEIVE
ADDED from [com.google.firebase:firebase-iid:16.0.0] C:\Users\geyer\.gradle\caches\transforms-1\files-1.1\firebase-iid-16.0.0.aar\9c078a6938805412044a44a5bf288248\AndroidManifest.xml:26:5-82
	android:name
		ADDED from [com.google.firebase:firebase-iid:16.0.0] C:\Users\geyer\.gradle\caches\transforms-1\files-1.1\firebase-iid-16.0.0.aar\9c078a6938805412044a44a5bf288248\AndroidManifest.xml:26:22-79
permission#${applicationId}.permission.C2D_MESSAGE
ADDED from [com.google.firebase:firebase-iid:16.0.0] C:\Users\geyer\.gradle\caches\transforms-1\files-1.1\firebase-iid-16.0.0.aar\9c078a6938805412044a44a5bf288248\AndroidManifest.xml:28:5-30:47
	android:protectionLevel
		ADDED from [com.google.firebase:firebase-iid:16.0.0] C:\Users\geyer\.gradle\caches\transforms-1\files-1.1\firebase-iid-16.0.0.aar\9c078a6938805412044a44a5bf288248\AndroidManifest.xml:30:9-44
	android:name
		ADDED from [com.google.firebase:firebase-iid:16.0.0] C:\Users\geyer\.gradle\caches\transforms-1\files-1.1\firebase-iid-16.0.0.aar\9c078a6938805412044a44a5bf288248\AndroidManifest.xml:29:9-63
permission#at.markusgeyer.discover.permission.C2D_MESSAGE
ADDED from [com.google.firebase:firebase-iid:16.0.0] C:\Users\geyer\.gradle\caches\transforms-1\files-1.1\firebase-iid-16.0.0.aar\9c078a6938805412044a44a5bf288248\AndroidManifest.xml:28:5-30:47
	android:protectionLevel
		ADDED from [com.google.firebase:firebase-iid:16.0.0] C:\Users\geyer\.gradle\caches\transforms-1\files-1.1\firebase-iid-16.0.0.aar\9c078a6938805412044a44a5bf288248\AndroidManifest.xml:30:9-44
	android:name
		ADDED from [com.google.firebase:firebase-iid:16.0.0] C:\Users\geyer\.gradle\caches\transforms-1\files-1.1\firebase-iid-16.0.0.aar\9c078a6938805412044a44a5bf288248\AndroidManifest.xml:29:9-63
uses-permission#${applicationId}.permission.C2D_MESSAGE
ADDED from [com.google.firebase:firebase-iid:16.0.0] C:\Users\geyer\.gradle\caches\transforms-1\files-1.1\firebase-iid-16.0.0.aar\9c078a6938805412044a44a5bf288248\AndroidManifest.xml:32:5-79
	android:name
		ADDED from [com.google.firebase:firebase-iid:16.0.0] C:\Users\geyer\.gradle\caches\transforms-1\files-1.1\firebase-iid-16.0.0.aar\9c078a6938805412044a44a5bf288248\AndroidManifest.xml:32:22-76
uses-permission#at.markusgeyer.discover.permission.C2D_MESSAGE
ADDED from [com.google.firebase:firebase-iid:16.0.0] C:\Users\geyer\.gradle\caches\transforms-1\files-1.1\firebase-iid-16.0.0.aar\9c078a6938805412044a44a5bf288248\AndroidManifest.xml:32:5-79
	android:name
		ADDED from [com.google.firebase:firebase-iid:16.0.0] C:\Users\geyer\.gradle\caches\transforms-1\files-1.1\firebase-iid-16.0.0.aar\9c078a6938805412044a44a5bf288248\AndroidManifest.xml:32:22-76
meta-data#com.google.firebase.components:com.google.firebase.iid.Registrar
ADDED from [com.google.firebase:firebase-iid:16.0.0] C:\Users\geyer\.gradle\caches\transforms-1\files-1.1\firebase-iid-16.0.0.aar\9c078a6938805412044a44a5bf288248\AndroidManifest.xml:36:13-38:85
	android:value
		ADDED from [com.google.firebase:firebase-iid:16.0.0] C:\Users\geyer\.gradle\caches\transforms-1\files-1.1\firebase-iid-16.0.0.aar\9c078a6938805412044a44a5bf288248\AndroidManifest.xml:38:17-82
	android:name
		ADDED from [com.google.firebase:firebase-iid:16.0.0] C:\Users\geyer\.gradle\caches\transforms-1\files-1.1\firebase-iid-16.0.0.aar\9c078a6938805412044a44a5bf288248\AndroidManifest.xml:37:17-96
receiver#com.google.firebase.iid.FirebaseInstanceIdReceiver
ADDED from [com.google.firebase:firebase-iid:16.0.0] C:\Users\geyer\.gradle\caches\transforms-1\files-1.1\firebase-iid-16.0.0.aar\9c078a6938805412044a44a5bf288248\AndroidManifest.xml:41:9-50:20
	android:exported
		ADDED from [com.google.firebase:firebase-iid:16.0.0] C:\Users\geyer\.gradle\caches\transforms-1\files-1.1\firebase-iid-16.0.0.aar\9c078a6938805412044a44a5bf288248\AndroidManifest.xml:43:13-36
	android:permission
		ADDED from [com.google.firebase:firebase-iid:16.0.0] C:\Users\geyer\.gradle\caches\transforms-1\files-1.1\firebase-iid-16.0.0.aar\9c078a6938805412044a44a5bf288248\AndroidManifest.xml:44:13-73
	android:name
		ADDED from [com.google.firebase:firebase-iid:16.0.0] C:\Users\geyer\.gradle\caches\transforms-1\files-1.1\firebase-iid-16.0.0.aar\9c078a6938805412044a44a5bf288248\AndroidManifest.xml:42:13-78
intent-filter#action:name:com.google.android.c2dm.intent.RECEIVE+category:name:${applicationId}
ADDED from [com.google.firebase:firebase-iid:16.0.0] C:\Users\geyer\.gradle\caches\transforms-1\files-1.1\firebase-iid-16.0.0.aar\9c078a6938805412044a44a5bf288248\AndroidManifest.xml:45:13-49:29
intent-filter#action:name:com.google.android.c2dm.intent.RECEIVE+category:name:at.markusgeyer.discover
ADDED from [com.google.firebase:firebase-iid:16.0.0] C:\Users\geyer\.gradle\caches\transforms-1\files-1.1\firebase-iid-16.0.0.aar\9c078a6938805412044a44a5bf288248\AndroidManifest.xml:45:13-49:29
action#com.google.android.c2dm.intent.RECEIVE
ADDED from [com.google.firebase:firebase-iid:16.0.0] C:\Users\geyer\.gradle\caches\transforms-1\files-1.1\firebase-iid-16.0.0.aar\9c078a6938805412044a44a5bf288248\AndroidManifest.xml:46:17-81
	android:name
		ADDED from [com.google.firebase:firebase-iid:16.0.0] C:\Users\geyer\.gradle\caches\transforms-1\files-1.1\firebase-iid-16.0.0.aar\9c078a6938805412044a44a5bf288248\AndroidManifest.xml:46:25-78
category#${applicationId}
ADDED from [com.google.firebase:firebase-iid:16.0.0] C:\Users\geyer\.gradle\caches\transforms-1\files-1.1\firebase-iid-16.0.0.aar\9c078a6938805412044a44a5bf288248\AndroidManifest.xml:48:17-61
	android:name
		ADDED from [com.google.firebase:firebase-iid:16.0.0] C:\Users\geyer\.gradle\caches\transforms-1\files-1.1\firebase-iid-16.0.0.aar\9c078a6938805412044a44a5bf288248\AndroidManifest.xml:48:27-58
category#at.markusgeyer.discover
ADDED from [com.google.firebase:firebase-iid:16.0.0] C:\Users\geyer\.gradle\caches\transforms-1\files-1.1\firebase-iid-16.0.0.aar\9c078a6938805412044a44a5bf288248\AndroidManifest.xml:48:17-61
	android:name
		ADDED from [com.google.firebase:firebase-iid:16.0.0] C:\Users\geyer\.gradle\caches\transforms-1\files-1.1\firebase-iid-16.0.0.aar\9c078a6938805412044a44a5bf288248\AndroidManifest.xml:48:27-58
service#com.google.firebase.iid.FirebaseInstanceIdService
ADDED from [com.google.firebase:firebase-iid:16.0.0] C:\Users\geyer\.gradle\caches\transforms-1\files-1.1\firebase-iid-16.0.0.aar\9c078a6938805412044a44a5bf288248\AndroidManifest.xml:56:9-62:19
	android:exported
		ADDED from [com.google.firebase:firebase-iid:16.0.0] C:\Users\geyer\.gradle\caches\transforms-1\files-1.1\firebase-iid-16.0.0.aar\9c078a6938805412044a44a5bf288248\AndroidManifest.xml:58:13-36
	android:name
		ADDED from [com.google.firebase:firebase-iid:16.0.0] C:\Users\geyer\.gradle\caches\transforms-1\files-1.1\firebase-iid-16.0.0.aar\9c078a6938805412044a44a5bf288248\AndroidManifest.xml:57:13-77
intent-filter#action:name:com.google.firebase.INSTANCE_ID_EVENT
ADDED from [com.google.firebase:firebase-iid:16.0.0] C:\Users\geyer\.gradle\caches\transforms-1\files-1.1\firebase-iid-16.0.0.aar\9c078a6938805412044a44a5bf288248\AndroidManifest.xml:59:13-61:29
	android:priority
		ADDED from [com.google.firebase:firebase-iid:16.0.0] C:\Users\geyer\.gradle\caches\transforms-1\files-1.1\firebase-iid-16.0.0.aar\9c078a6938805412044a44a5bf288248\AndroidManifest.xml:59:28-51
action#com.google.firebase.INSTANCE_ID_EVENT
ADDED from [com.google.firebase:firebase-iid:16.0.0] C:\Users\geyer\.gradle\caches\transforms-1\files-1.1\firebase-iid-16.0.0.aar\9c078a6938805412044a44a5bf288248\AndroidManifest.xml:60:17-80
	android:name
		ADDED from [com.google.firebase:firebase-iid:16.0.0] C:\Users\geyer\.gradle\caches\transforms-1\files-1.1\firebase-iid-16.0.0.aar\9c078a6938805412044a44a5bf288248\AndroidManifest.xml:60:25-77
activity#com.google.android.gms.common.api.GoogleApiActivity
ADDED from [com.google.android.gms:play-services-base:15.0.1] C:\Users\geyer\.gradle\caches\transforms-1\files-1.1\play-services-base-15.0.1.aar\3354c9b8139797483629ef05acf0ae57\AndroidManifest.xml:23:9-26:75
	android:exported
		ADDED from [com.google.android.gms:play-services-base:15.0.1] C:\Users\geyer\.gradle\caches\transforms-1\files-1.1\play-services-base-15.0.1.aar\3354c9b8139797483629ef05acf0ae57\AndroidManifest.xml:25:13-37
	android:theme
		ADDED from [com.google.android.gms:play-services-base:15.0.1] C:\Users\geyer\.gradle\caches\transforms-1\files-1.1\play-services-base-15.0.1.aar\3354c9b8139797483629ef05acf0ae57\AndroidManifest.xml:26:13-72
	android:name
		ADDED from [com.google.android.gms:play-services-base:15.0.1] C:\Users\geyer\.gradle\caches\transforms-1\files-1.1\play-services-base-15.0.1.aar\3354c9b8139797483629ef05acf0ae57\AndroidManifest.xml:24:13-79
provider#com.google.firebase.provider.FirebaseInitProvider
ADDED from [com.google.firebase:firebase-common:16.0.0] C:\Users\geyer\.gradle\caches\transforms-1\files-1.1\firebase-common-16.0.0.aar\6c6fa18fcd6bbf4979ecad1696e72ca0\AndroidManifest.xml:9:9-13:39
	android:authorities
		ADDED from [com.google.firebase:firebase-common:16.0.0] C:\Users\geyer\.gradle\caches\transforms-1\files-1.1\firebase-common-16.0.0.aar\6c6fa18fcd6bbf4979ecad1696e72ca0\AndroidManifest.xml:11:13-72
	android:exported
		ADDED from [com.google.firebase:firebase-common:16.0.0] C:\Users\geyer\.gradle\caches\transforms-1\files-1.1\firebase-common-16.0.0.aar\6c6fa18fcd6bbf4979ecad1696e72ca0\AndroidManifest.xml:12:13-37
	android:initOrder
		ADDED from [com.google.firebase:firebase-common:16.0.0] C:\Users\geyer\.gradle\caches\transforms-1\files-1.1\firebase-common-16.0.0.aar\6c6fa18fcd6bbf4979ecad1696e72ca0\AndroidManifest.xml:13:13-36
	android:name
		ADDED from [com.google.firebase:firebase-common:16.0.0] C:\Users\geyer\.gradle\caches\transforms-1\files-1.1\firebase-common-16.0.0.aar\6c6fa18fcd6bbf4979ecad1696e72ca0\AndroidManifest.xml:10:13-77
meta-data#com.google.android.gms.version
ADDED from [com.google.android.gms:play-services-basement:15.0.1] C:\Users\geyer\.gradle\caches\transforms-1\files-1.1\play-services-basement-15.0.1.aar\67243ccb9bd56bafe83bde469c597df7\AndroidManifest.xml:23:9-25:69
	android:value
		ADDED from [com.google.android.gms:play-services-basement:15.0.1] C:\Users\geyer\.gradle\caches\transforms-1\files-1.1\play-services-basement-15.0.1.aar\67243ccb9bd56bafe83bde469c597df7\AndroidManifest.xml:25:13-66
	android:name
		ADDED from [com.google.android.gms:play-services-basement:15.0.1] C:\Users\geyer\.gradle\caches\transforms-1\files-1.1\play-services-basement-15.0.1.aar\67243ccb9bd56bafe83bde469c597df7\AndroidManifest.xml:24:13-58
provider#com.crashlytics.android.CrashlyticsInitProvider
ADDED from [com.crashlytics.sdk.android:crashlytics:2.9.5] C:\Users\geyer\.gradle\caches\transforms-1\files-1.1\crashlytics-2.9.5.aar\480b58d1bbe1ce75a2297dd46ee77da4\AndroidManifest.xml:12:9-16:38
	android:authorities
		ADDED from [com.crashlytics.sdk.android:crashlytics:2.9.5] C:\Users\geyer\.gradle\caches\transforms-1\files-1.1\crashlytics-2.9.5.aar\480b58d1bbe1ce75a2297dd46ee77da4\AndroidManifest.xml:14:13-75
	android:exported
		ADDED from [com.crashlytics.sdk.android:crashlytics:2.9.5] C:\Users\geyer\.gradle\caches\transforms-1\files-1.1\crashlytics-2.9.5.aar\480b58d1bbe1ce75a2297dd46ee77da4\AndroidManifest.xml:15:13-37
	android:initOrder
		ADDED from [com.crashlytics.sdk.android:crashlytics:2.9.5] C:\Users\geyer\.gradle\caches\transforms-1\files-1.1\crashlytics-2.9.5.aar\480b58d1bbe1ce75a2297dd46ee77da4\AndroidManifest.xml:16:13-35
	android:name
		ADDED from [com.crashlytics.sdk.android:crashlytics:2.9.5] C:\Users\geyer\.gradle\caches\transforms-1\files-1.1\crashlytics-2.9.5.aar\480b58d1bbe1ce75a2297dd46ee77da4\AndroidManifest.xml:13:13-75
